\select@language {russian}
\contentsline {chapter}{\numberline {1}\IeC {\CYRS }\IeC {\cyrp }\IeC {\cyri }\IeC {\cyrs }\IeC {\cyro }\IeC {\cyrk } \IeC {\cyrf }\IeC {\cyra }\IeC {\cyrishrt }\IeC {\cyrl }\IeC {\cyro }\IeC {\cyrv }}{1}{chapter.1}
\contentsline {section}{\numberline {1.1}\IeC {\CYRF }\IeC {\cyra }\IeC {\cyrishrt }\IeC {\cyrl }\IeC {\cyrery }}{1}{section.1.1}
\contentsline {chapter}{\numberline {2}\IeC {\CYRF }\IeC {\cyra }\IeC {\cyrishrt }\IeC {\cyrl }\IeC {\cyrery }}{3}{chapter.2}
\contentsline {section}{\numberline {2.1}\IeC {\CYRF }\IeC {\cyra }\IeC {\cyrishrt }\IeC {\cyrl } chem\discretionary {-}{}{}Calc.\discretionary {-}{}{}inc.\discretionary {-}{}{}php}{3}{section.2.1}
\contentsline {subsection}{\numberline {2.1.1}\IeC {\CYRP }\IeC {\cyre }\IeC {\cyrr }\IeC {\cyre }\IeC {\cyrm }\IeC {\cyre }\IeC {\cyrn }\IeC {\cyrn }\IeC {\cyrery }\IeC {\cyre }}{4}{subsection.2.1.1}
\contentsline {subsubsection}{\numberline {2.1.1.1}\$chem\discretionary {-}{}{}D\discretionary {-}{}{}B\discretionary {-}{}{}\_\discretionary {-}{}{}tables}{4}{subsubsection.2.1.1.1}
\contentsline {subsubsection}{\numberline {2.1.1.2}C\discretionary {-}{}{}H\discretionary {-}{}{}E\discretionary {-}{}{}M\discretionary {-}{}{}\_\discretionary {-}{}{}\discretionary {-}{}{}A\discretionary {-}{}{}P\discretionary {-}{}{}I\discretionary {-}{}{}\_\discretionary {-}{}{}\discretionary {-}{}{}A\discretionary {-}{}{}C\discretionary {-}{}{}T\discretionary {-}{}{}I\discretionary {-}{}{}O\discretionary {-}{}{}N}{4}{subsubsection.2.1.1.2}
\contentsline {subsubsection}{\numberline {2.1.1.3}C\discretionary {-}{}{}H\discretionary {-}{}{}E\discretionary {-}{}{}M\discretionary {-}{}{}\_\discretionary {-}{}{}\discretionary {-}{}{}A\discretionary {-}{}{}P\discretionary {-}{}{}I\discretionary {-}{}{}\_\discretionary {-}{}{}\discretionary {-}{}{}A\discretionary {-}{}{}R\discretionary {-}{}{}R\discretionary {-}{}{}A\discretionary {-}{}{}Y\discretionary {-}{}{}\_\discretionary {-}{}{}\discretionary {-}{}{}L\discretionary {-}{}{}A\discretionary {-}{}{}N\discretionary {-}{}{}G\discretionary {-}{}{}\_\discretionary {-}{}{}\discretionary {-}{}{}R\discretionary {-}{}{}U\discretionary {-}{}{}S}{4}{subsubsection.2.1.1.3}
\contentsline {subsubsection}{\numberline {2.1.1.4}C\discretionary {-}{}{}H\discretionary {-}{}{}E\discretionary {-}{}{}M\discretionary {-}{}{}\_\discretionary {-}{}{}\discretionary {-}{}{}A\discretionary {-}{}{}P\discretionary {-}{}{}I\discretionary {-}{}{}\_\discretionary {-}{}{}\discretionary {-}{}{}A\discretionary {-}{}{}R\discretionary {-}{}{}R\discretionary {-}{}{}A\discretionary {-}{}{}Y\discretionary {-}{}{}\_\discretionary {-}{}{}\discretionary {-}{}{}S\discretionary {-}{}{}O\discretionary {-}{}{}U\discretionary {-}{}{}R\discretionary {-}{}{}C\discretionary {-}{}{}E\discretionary {-}{}{}S}{4}{subsubsection.2.1.1.4}
\contentsline {subsubsection}{\numberline {2.1.1.5}C\discretionary {-}{}{}H\discretionary {-}{}{}E\discretionary {-}{}{}M\discretionary {-}{}{}\_\discretionary {-}{}{}\discretionary {-}{}{}A\discretionary {-}{}{}P\discretionary {-}{}{}I\discretionary {-}{}{}\_\discretionary {-}{}{}\discretionary {-}{}{}A\discretionary {-}{}{}R\discretionary {-}{}{}R\discretionary {-}{}{}A\discretionary {-}{}{}Y\discretionary {-}{}{}\_\discretionary {-}{}{}\discretionary {-}{}{}T\discretionary {-}{}{}A\discretionary {-}{}{}B\discretionary {-}{}{}L\discretionary {-}{}{}E}{4}{subsubsection.2.1.1.5}
\contentsline {subsubsection}{\numberline {2.1.1.6}C\discretionary {-}{}{}H\discretionary {-}{}{}E\discretionary {-}{}{}M\discretionary {-}{}{}\_\discretionary {-}{}{}\discretionary {-}{}{}A\discretionary {-}{}{}P\discretionary {-}{}{}I\discretionary {-}{}{}\_\discretionary {-}{}{}\discretionary {-}{}{}P\discretionary {-}{}{}H}{5}{subsubsection.2.1.1.6}
\contentsline {subsubsection}{\numberline {2.1.1.7}C\discretionary {-}{}{}H\discretionary {-}{}{}E\discretionary {-}{}{}M\discretionary {-}{}{}\_\discretionary {-}{}{}\discretionary {-}{}{}A\discretionary {-}{}{}P\discretionary {-}{}{}I\discretionary {-}{}{}\_\discretionary {-}{}{}\discretionary {-}{}{}P\discretionary {-}{}{}H\discretionary {-}{}{}\_\discretionary {-}{}{}\discretionary {-}{}{}C\discretionary {-}{}{}O\discretionary {-}{}{}N\discretionary {-}{}{}C\discretionary {-}{}{}E\discretionary {-}{}{}N\discretionary {-}{}{}T\discretionary {-}{}{}R\discretionary {-}{}{}A\discretionary {-}{}{}T\discretionary {-}{}{}I\discretionary {-}{}{}O\discretionary {-}{}{}N}{5}{subsubsection.2.1.1.7}
\contentsline {subsubsection}{\numberline {2.1.1.8}C\discretionary {-}{}{}H\discretionary {-}{}{}E\discretionary {-}{}{}M\discretionary {-}{}{}\_\discretionary {-}{}{}\discretionary {-}{}{}A\discretionary {-}{}{}P\discretionary {-}{}{}I\discretionary {-}{}{}\_\discretionary {-}{}{}\discretionary {-}{}{}P\discretionary {-}{}{}H\discretionary {-}{}{}\_\discretionary {-}{}{}\discretionary {-}{}{}F\discretionary {-}{}{}O\discretionary {-}{}{}R\discretionary {-}{}{}M\discretionary {-}{}{}U\discretionary {-}{}{}L\discretionary {-}{}{}A}{5}{subsubsection.2.1.1.8}
\contentsline {subsubsection}{\numberline {2.1.1.9}C\discretionary {-}{}{}H\discretionary {-}{}{}E\discretionary {-}{}{}M\discretionary {-}{}{}\_\discretionary {-}{}{}\discretionary {-}{}{}A\discretionary {-}{}{}P\discretionary {-}{}{}I\discretionary {-}{}{}\_\discretionary {-}{}{}\discretionary {-}{}{}P\discretionary {-}{}{}H\discretionary {-}{}{}\_\discretionary {-}{}{}\discretionary {-}{}{}K\discretionary {-}{}{}D1}{5}{subsubsection.2.1.1.9}
\contentsline {subsubsection}{\numberline {2.1.1.10}C\discretionary {-}{}{}H\discretionary {-}{}{}E\discretionary {-}{}{}M\discretionary {-}{}{}\_\discretionary {-}{}{}\discretionary {-}{}{}A\discretionary {-}{}{}P\discretionary {-}{}{}I\discretionary {-}{}{}\_\discretionary {-}{}{}\discretionary {-}{}{}P\discretionary {-}{}{}H\discretionary {-}{}{}\_\discretionary {-}{}{}\discretionary {-}{}{}K\discretionary {-}{}{}D2}{5}{subsubsection.2.1.1.10}
\contentsline {subsubsection}{\numberline {2.1.1.11}C\discretionary {-}{}{}H\discretionary {-}{}{}E\discretionary {-}{}{}M\discretionary {-}{}{}\_\discretionary {-}{}{}\discretionary {-}{}{}A\discretionary {-}{}{}P\discretionary {-}{}{}I\discretionary {-}{}{}\_\discretionary {-}{}{}\discretionary {-}{}{}P\discretionary {-}{}{}H\discretionary {-}{}{}\_\discretionary {-}{}{}\discretionary {-}{}{}K\discretionary {-}{}{}D3}{5}{subsubsection.2.1.1.11}
\contentsline {subsubsection}{\numberline {2.1.1.12}C\discretionary {-}{}{}H\discretionary {-}{}{}E\discretionary {-}{}{}M\discretionary {-}{}{}\_\discretionary {-}{}{}\discretionary {-}{}{}A\discretionary {-}{}{}P\discretionary {-}{}{}I\discretionary {-}{}{}\_\discretionary {-}{}{}\discretionary {-}{}{}P\discretionary {-}{}{}H\discretionary {-}{}{}\_\discretionary {-}{}{}\discretionary {-}{}{}K\discretionary {-}{}{}W}{5}{subsubsection.2.1.1.12}
\contentsline {subsubsection}{\numberline {2.1.1.13}C\discretionary {-}{}{}H\discretionary {-}{}{}E\discretionary {-}{}{}M\discretionary {-}{}{}\_\discretionary {-}{}{}\discretionary {-}{}{}A\discretionary {-}{}{}P\discretionary {-}{}{}I\discretionary {-}{}{}\_\discretionary {-}{}{}\discretionary {-}{}{}P\discretionary {-}{}{}H\discretionary {-}{}{}\_\discretionary {-}{}{}\discretionary {-}{}{}M\discretionary {-}{}{}A\discretionary {-}{}{}X\discretionary {-}{}{}I\discretionary {-}{}{}T\discretionary {-}{}{}E\discretionary {-}{}{}R}{5}{subsubsection.2.1.1.13}
\contentsline {subsubsection}{\numberline {2.1.1.14}C\discretionary {-}{}{}H\discretionary {-}{}{}E\discretionary {-}{}{}M\discretionary {-}{}{}\_\discretionary {-}{}{}\discretionary {-}{}{}A\discretionary {-}{}{}P\discretionary {-}{}{}I\discretionary {-}{}{}\_\discretionary {-}{}{}\discretionary {-}{}{}P\discretionary {-}{}{}H\discretionary {-}{}{}\_\discretionary {-}{}{}\discretionary {-}{}{}M\discretionary {-}{}{}O\discretionary {-}{}{}D\discretionary {-}{}{}E}{5}{subsubsection.2.1.1.14}
\contentsline {subsubsection}{\numberline {2.1.1.15}C\discretionary {-}{}{}H\discretionary {-}{}{}E\discretionary {-}{}{}M\discretionary {-}{}{}\_\discretionary {-}{}{}\discretionary {-}{}{}A\discretionary {-}{}{}P\discretionary {-}{}{}I\discretionary {-}{}{}\_\discretionary {-}{}{}\discretionary {-}{}{}P\discretionary {-}{}{}H\discretionary {-}{}{}\_\discretionary {-}{}{}\discretionary {-}{}{}O\discretionary {-}{}{}U\discretionary {-}{}{}T\discretionary {-}{}{}P\discretionary {-}{}{}U\discretionary {-}{}{}T\discretionary {-}{}{}M\discretionary {-}{}{}O\discretionary {-}{}{}D\discretionary {-}{}{}E}{5}{subsubsection.2.1.1.15}
\contentsline {subsubsection}{\numberline {2.1.1.16}C\discretionary {-}{}{}H\discretionary {-}{}{}E\discretionary {-}{}{}M\discretionary {-}{}{}\_\discretionary {-}{}{}\discretionary {-}{}{}A\discretionary {-}{}{}P\discretionary {-}{}{}I\discretionary {-}{}{}\_\discretionary {-}{}{}\discretionary {-}{}{}P\discretionary {-}{}{}H\discretionary {-}{}{}\_\discretionary {-}{}{}\discretionary {-}{}{}U\discretionary {-}{}{}S\discretionary {-}{}{}E\discretionary {-}{}{}O\discretionary {-}{}{}W\discretionary {-}{}{}N}{6}{subsubsection.2.1.1.16}
\contentsline {subsubsection}{\numberline {2.1.1.17}C\discretionary {-}{}{}H\discretionary {-}{}{}E\discretionary {-}{}{}M\discretionary {-}{}{}\_\discretionary {-}{}{}\discretionary {-}{}{}A\discretionary {-}{}{}P\discretionary {-}{}{}I\discretionary {-}{}{}\_\discretionary {-}{}{}\discretionary {-}{}{}S\discretionary {-}{}{}E\discretionary {-}{}{}A\discretionary {-}{}{}R\discretionary {-}{}{}C\discretionary {-}{}{}H\discretionary {-}{}{}A\discretionary {-}{}{}B\discretionary {-}{}{}K\discretionary {-}{}{}D}{6}{subsubsection.2.1.1.17}
\contentsline {subsubsection}{\numberline {2.1.1.18}C\discretionary {-}{}{}H\discretionary {-}{}{}E\discretionary {-}{}{}M\discretionary {-}{}{}\_\discretionary {-}{}{}\discretionary {-}{}{}A\discretionary {-}{}{}P\discretionary {-}{}{}I\discretionary {-}{}{}\_\discretionary {-}{}{}\discretionary {-}{}{}S\discretionary {-}{}{}E\discretionary {-}{}{}A\discretionary {-}{}{}R\discretionary {-}{}{}C\discretionary {-}{}{}H\discretionary {-}{}{}A\discretionary {-}{}{}B\discretionary {-}{}{}K\discretionary {-}{}{}D\discretionary {-}{}{}\_\discretionary {-}{}{}\discretionary {-}{}{}C\discretionary {-}{}{}A\discretionary {-}{}{}S\discretionary {-}{}{}E\discretionary {-}{}{}S\discretionary {-}{}{}E\discretionary {-}{}{}N}{6}{subsubsection.2.1.1.18}
\contentsline {subsubsection}{\numberline {2.1.1.19}C\discretionary {-}{}{}H\discretionary {-}{}{}E\discretionary {-}{}{}M\discretionary {-}{}{}\_\discretionary {-}{}{}\discretionary {-}{}{}A\discretionary {-}{}{}P\discretionary {-}{}{}I\discretionary {-}{}{}\_\discretionary {-}{}{}\discretionary {-}{}{}S\discretionary {-}{}{}E\discretionary {-}{}{}A\discretionary {-}{}{}R\discretionary {-}{}{}C\discretionary {-}{}{}H\discretionary {-}{}{}A\discretionary {-}{}{}B\discretionary {-}{}{}K\discretionary {-}{}{}D\discretionary {-}{}{}\_\discretionary {-}{}{}\discretionary {-}{}{}L\discretionary {-}{}{}A\discretionary {-}{}{}N\discretionary {-}{}{}G\discretionary {-}{}{}\_\discretionary {-}{}{}\discretionary {-}{}{}F\discretionary {-}{}{}O\discretionary {-}{}{}R\discretionary {-}{}{}M\discretionary {-}{}{}U\discretionary {-}{}{}L\discretionary {-}{}{}A}{6}{subsubsection.2.1.1.19}
\contentsline {subsubsection}{\numberline {2.1.1.20}C\discretionary {-}{}{}H\discretionary {-}{}{}E\discretionary {-}{}{}M\discretionary {-}{}{}\_\discretionary {-}{}{}\discretionary {-}{}{}A\discretionary {-}{}{}P\discretionary {-}{}{}I\discretionary {-}{}{}\_\discretionary {-}{}{}\discretionary {-}{}{}S\discretionary {-}{}{}E\discretionary {-}{}{}A\discretionary {-}{}{}R\discretionary {-}{}{}C\discretionary {-}{}{}H\discretionary {-}{}{}A\discretionary {-}{}{}B\discretionary {-}{}{}K\discretionary {-}{}{}D\discretionary {-}{}{}\_\discretionary {-}{}{}\discretionary {-}{}{}L\discretionary {-}{}{}A\discretionary {-}{}{}N\discretionary {-}{}{}G\discretionary {-}{}{}\_\discretionary {-}{}{}\discretionary {-}{}{}N\discretionary {-}{}{}A\discretionary {-}{}{}M\discretionary {-}{}{}E}{6}{subsubsection.2.1.1.20}
\contentsline {subsubsection}{\numberline {2.1.1.21}C\discretionary {-}{}{}H\discretionary {-}{}{}E\discretionary {-}{}{}M\discretionary {-}{}{}\_\discretionary {-}{}{}\discretionary {-}{}{}A\discretionary {-}{}{}P\discretionary {-}{}{}I\discretionary {-}{}{}\_\discretionary {-}{}{}\discretionary {-}{}{}S\discretionary {-}{}{}E\discretionary {-}{}{}A\discretionary {-}{}{}R\discretionary {-}{}{}C\discretionary {-}{}{}H\discretionary {-}{}{}A\discretionary {-}{}{}B\discretionary {-}{}{}K\discretionary {-}{}{}D\discretionary {-}{}{}\_\discretionary {-}{}{}\discretionary {-}{}{}L\discretionary {-}{}{}A\discretionary {-}{}{}N\discretionary {-}{}{}G\discretionary {-}{}{}\_\discretionary {-}{}{}\discretionary {-}{}{}N\discretionary {-}{}{}O\discretionary {-}{}{}T\discretionary {-}{}{}A\discretionary {-}{}{}L\discretionary {-}{}{}L\discretionary {-}{}{}R\discretionary {-}{}{}E\discretionary {-}{}{}S\discretionary {-}{}{}U\discretionary {-}{}{}L\discretionary {-}{}{}T\discretionary {-}{}{}S}{6}{subsubsection.2.1.1.21}
\contentsline {subsubsection}{\numberline {2.1.1.22}C\discretionary {-}{}{}H\discretionary {-}{}{}E\discretionary {-}{}{}M\discretionary {-}{}{}\_\discretionary {-}{}{}\discretionary {-}{}{}A\discretionary {-}{}{}P\discretionary {-}{}{}I\discretionary {-}{}{}\_\discretionary {-}{}{}\discretionary {-}{}{}S\discretionary {-}{}{}E\discretionary {-}{}{}A\discretionary {-}{}{}R\discretionary {-}{}{}C\discretionary {-}{}{}H\discretionary {-}{}{}A\discretionary {-}{}{}B\discretionary {-}{}{}K\discretionary {-}{}{}D\discretionary {-}{}{}\_\discretionary {-}{}{}\discretionary {-}{}{}L\discretionary {-}{}{}A\discretionary {-}{}{}N\discretionary {-}{}{}G\discretionary {-}{}{}\_\discretionary {-}{}{}\discretionary {-}{}{}N\discretionary {-}{}{}O\discretionary {-}{}{}T\discretionary {-}{}{}E\discretionary {-}{}{}S}{6}{subsubsection.2.1.1.22}
\contentsline {subsubsection}{\numberline {2.1.1.23}C\discretionary {-}{}{}H\discretionary {-}{}{}E\discretionary {-}{}{}M\discretionary {-}{}{}\_\discretionary {-}{}{}\discretionary {-}{}{}A\discretionary {-}{}{}P\discretionary {-}{}{}I\discretionary {-}{}{}\_\discretionary {-}{}{}\discretionary {-}{}{}S\discretionary {-}{}{}E\discretionary {-}{}{}A\discretionary {-}{}{}R\discretionary {-}{}{}C\discretionary {-}{}{}H\discretionary {-}{}{}A\discretionary {-}{}{}B\discretionary {-}{}{}K\discretionary {-}{}{}D\discretionary {-}{}{}\_\discretionary {-}{}{}\discretionary {-}{}{}L\discretionary {-}{}{}A\discretionary {-}{}{}N\discretionary {-}{}{}G\discretionary {-}{}{}\_\discretionary {-}{}{}\discretionary {-}{}{}R\discretionary {-}{}{}E\discretionary {-}{}{}S\discretionary {-}{}{}U\discretionary {-}{}{}L\discretionary {-}{}{}T\discretionary {-}{}{}S}{6}{subsubsection.2.1.1.23}
\contentsline {subsubsection}{\numberline {2.1.1.24}C\discretionary {-}{}{}H\discretionary {-}{}{}E\discretionary {-}{}{}M\discretionary {-}{}{}\_\discretionary {-}{}{}\discretionary {-}{}{}A\discretionary {-}{}{}P\discretionary {-}{}{}I\discretionary {-}{}{}\_\discretionary {-}{}{}\discretionary {-}{}{}S\discretionary {-}{}{}E\discretionary {-}{}{}A\discretionary {-}{}{}R\discretionary {-}{}{}C\discretionary {-}{}{}H\discretionary {-}{}{}A\discretionary {-}{}{}B\discretionary {-}{}{}K\discretionary {-}{}{}D\discretionary {-}{}{}\_\discretionary {-}{}{}\discretionary {-}{}{}L\discretionary {-}{}{}A\discretionary {-}{}{}N\discretionary {-}{}{}G\discretionary {-}{}{}\_\discretionary {-}{}{}\discretionary {-}{}{}S\discretionary {-}{}{}O\discretionary {-}{}{}U\discretionary {-}{}{}R\discretionary {-}{}{}C\discretionary {-}{}{}E}{6}{subsubsection.2.1.1.24}
\contentsline {subsubsection}{\numberline {2.1.1.25}C\discretionary {-}{}{}H\discretionary {-}{}{}E\discretionary {-}{}{}M\discretionary {-}{}{}\_\discretionary {-}{}{}\discretionary {-}{}{}A\discretionary {-}{}{}P\discretionary {-}{}{}I\discretionary {-}{}{}\_\discretionary {-}{}{}\discretionary {-}{}{}S\discretionary {-}{}{}E\discretionary {-}{}{}A\discretionary {-}{}{}R\discretionary {-}{}{}C\discretionary {-}{}{}H\discretionary {-}{}{}A\discretionary {-}{}{}B\discretionary {-}{}{}K\discretionary {-}{}{}D\discretionary {-}{}{}\_\discretionary {-}{}{}\discretionary {-}{}{}L\discretionary {-}{}{}A\discretionary {-}{}{}N\discretionary {-}{}{}G\discretionary {-}{}{}\_\discretionary {-}{}{}\discretionary {-}{}{}T\discretionary {-}{}{}E\discretionary {-}{}{}M\discretionary {-}{}{}P}{7}{subsubsection.2.1.1.25}
\contentsline {subsubsection}{\numberline {2.1.1.26}C\discretionary {-}{}{}H\discretionary {-}{}{}E\discretionary {-}{}{}M\discretionary {-}{}{}\_\discretionary {-}{}{}\discretionary {-}{}{}A\discretionary {-}{}{}P\discretionary {-}{}{}I\discretionary {-}{}{}\_\discretionary {-}{}{}\discretionary {-}{}{}S\discretionary {-}{}{}E\discretionary {-}{}{}A\discretionary {-}{}{}R\discretionary {-}{}{}C\discretionary {-}{}{}H\discretionary {-}{}{}A\discretionary {-}{}{}B\discretionary {-}{}{}K\discretionary {-}{}{}D\discretionary {-}{}{}\_\discretionary {-}{}{}\discretionary {-}{}{}M\discretionary {-}{}{}A\discretionary {-}{}{}X\discretionary {-}{}{}N}{7}{subsubsection.2.1.1.26}
\contentsline {subsubsection}{\numberline {2.1.1.27}C\discretionary {-}{}{}H\discretionary {-}{}{}E\discretionary {-}{}{}M\discretionary {-}{}{}\_\discretionary {-}{}{}\discretionary {-}{}{}A\discretionary {-}{}{}P\discretionary {-}{}{}I\discretionary {-}{}{}\_\discretionary {-}{}{}\discretionary {-}{}{}S\discretionary {-}{}{}E\discretionary {-}{}{}A\discretionary {-}{}{}R\discretionary {-}{}{}C\discretionary {-}{}{}H\discretionary {-}{}{}A\discretionary {-}{}{}B\discretionary {-}{}{}K\discretionary {-}{}{}D\discretionary {-}{}{}\_\discretionary {-}{}{}\discretionary {-}{}{}O\discretionary {-}{}{}U\discretionary {-}{}{}T\discretionary {-}{}{}P\discretionary {-}{}{}U\discretionary {-}{}{}T\discretionary {-}{}{}M\discretionary {-}{}{}O\discretionary {-}{}{}D\discretionary {-}{}{}E}{7}{subsubsection.2.1.1.27}
\contentsline {subsubsection}{\numberline {2.1.1.28}C\discretionary {-}{}{}H\discretionary {-}{}{}E\discretionary {-}{}{}M\discretionary {-}{}{}\_\discretionary {-}{}{}\discretionary {-}{}{}A\discretionary {-}{}{}P\discretionary {-}{}{}I\discretionary {-}{}{}\_\discretionary {-}{}{}\discretionary {-}{}{}S\discretionary {-}{}{}E\discretionary {-}{}{}A\discretionary {-}{}{}R\discretionary {-}{}{}C\discretionary {-}{}{}H\discretionary {-}{}{}A\discretionary {-}{}{}B\discretionary {-}{}{}K\discretionary {-}{}{}D\discretionary {-}{}{}\_\discretionary {-}{}{}\discretionary {-}{}{}R\discretionary {-}{}{}E\discretionary {-}{}{}G\discretionary {-}{}{}E\discretionary {-}{}{}X\discretionary {-}{}{}P}{7}{subsubsection.2.1.1.28}
\contentsline {subsubsection}{\numberline {2.1.1.29}C\discretionary {-}{}{}H\discretionary {-}{}{}E\discretionary {-}{}{}M\discretionary {-}{}{}\_\discretionary {-}{}{}\discretionary {-}{}{}A\discretionary {-}{}{}P\discretionary {-}{}{}I\discretionary {-}{}{}\_\discretionary {-}{}{}\discretionary {-}{}{}S\discretionary {-}{}{}E\discretionary {-}{}{}A\discretionary {-}{}{}R\discretionary {-}{}{}C\discretionary {-}{}{}H\discretionary {-}{}{}A\discretionary {-}{}{}B\discretionary {-}{}{}K\discretionary {-}{}{}D\discretionary {-}{}{}\_\discretionary {-}{}{}\discretionary {-}{}{}S\discretionary {-}{}{}T\discretionary {-}{}{}R\discretionary {-}{}{}I\discretionary {-}{}{}N\discretionary {-}{}{}G}{7}{subsubsection.2.1.1.29}
\contentsline {subsubsection}{\numberline {2.1.1.30}C\discretionary {-}{}{}H\discretionary {-}{}{}E\discretionary {-}{}{}M\discretionary {-}{}{}\_\discretionary {-}{}{}\discretionary {-}{}{}A\discretionary {-}{}{}P\discretionary {-}{}{}I\discretionary {-}{}{}\_\discretionary {-}{}{}\discretionary {-}{}{}S\discretionary {-}{}{}E\discretionary {-}{}{}A\discretionary {-}{}{}R\discretionary {-}{}{}C\discretionary {-}{}{}H\discretionary {-}{}{}A\discretionary {-}{}{}B\discretionary {-}{}{}K\discretionary {-}{}{}D\discretionary {-}{}{}\_\discretionary {-}{}{}\discretionary {-}{}{}S\discretionary {-}{}{}T\discretionary {-}{}{}Y\discretionary {-}{}{}L\discretionary {-}{}{}E}{7}{subsubsection.2.1.1.30}
\contentsline {subsubsection}{\numberline {2.1.1.31}C\discretionary {-}{}{}H\discretionary {-}{}{}E\discretionary {-}{}{}M\discretionary {-}{}{}\_\discretionary {-}{}{}\discretionary {-}{}{}A\discretionary {-}{}{}P\discretionary {-}{}{}I\discretionary {-}{}{}\_\discretionary {-}{}{}\discretionary {-}{}{}S\discretionary {-}{}{}E\discretionary {-}{}{}A\discretionary {-}{}{}R\discretionary {-}{}{}C\discretionary {-}{}{}H\discretionary {-}{}{}A\discretionary {-}{}{}B\discretionary {-}{}{}K\discretionary {-}{}{}D\discretionary {-}{}{}\_\discretionary {-}{}{}\discretionary {-}{}{}T\discretionary {-}{}{}D\discretionary {-}{}{}I\discretionary {-}{}{}T\discretionary {-}{}{}E\discretionary {-}{}{}M\discretionary {-}{}{}\_\discretionary {-}{}{}\discretionary {-}{}{}T\discretionary {-}{}{}E\discretionary {-}{}{}X\discretionary {-}{}{}T}{7}{subsubsection.2.1.1.31}
\contentsline {subsubsection}{\numberline {2.1.1.32}C\discretionary {-}{}{}H\discretionary {-}{}{}E\discretionary {-}{}{}M\discretionary {-}{}{}\_\discretionary {-}{}{}\discretionary {-}{}{}A\discretionary {-}{}{}P\discretionary {-}{}{}I\discretionary {-}{}{}\_\discretionary {-}{}{}\discretionary {-}{}{}S\discretionary {-}{}{}E\discretionary {-}{}{}A\discretionary {-}{}{}R\discretionary {-}{}{}C\discretionary {-}{}{}H\discretionary {-}{}{}A\discretionary {-}{}{}B\discretionary {-}{}{}K\discretionary {-}{}{}D\discretionary {-}{}{}\_\discretionary {-}{}{}\discretionary {-}{}{}T\discretionary {-}{}{}R\discretionary {-}{}{}D\discretionary {-}{}{}E\discretionary {-}{}{}S\discretionary {-}{}{}C\discretionary {-}{}{}R\discretionary {-}{}{}C\discretionary {-}{}{}O\discretionary {-}{}{}L\discretionary {-}{}{}\_\discretionary {-}{}{}\discretionary {-}{}{}T\discretionary {-}{}{}E\discretionary {-}{}{}X\discretionary {-}{}{}T}{7}{subsubsection.2.1.1.32}
\contentsline {subsubsection}{\numberline {2.1.1.33}C\discretionary {-}{}{}H\discretionary {-}{}{}E\discretionary {-}{}{}M\discretionary {-}{}{}\_\discretionary {-}{}{}\discretionary {-}{}{}A\discretionary {-}{}{}P\discretionary {-}{}{}I\discretionary {-}{}{}\_\discretionary {-}{}{}\discretionary {-}{}{}S\discretionary {-}{}{}E\discretionary {-}{}{}A\discretionary {-}{}{}R\discretionary {-}{}{}C\discretionary {-}{}{}H\discretionary {-}{}{}A\discretionary {-}{}{}B\discretionary {-}{}{}K\discretionary {-}{}{}D\discretionary {-}{}{}\_\discretionary {-}{}{}\discretionary {-}{}{}T\discretionary {-}{}{}R\discretionary {-}{}{}I\discretionary {-}{}{}T\discretionary {-}{}{}E\discretionary {-}{}{}M\discretionary {-}{}{}\_\discretionary {-}{}{}\discretionary {-}{}{}A\discretionary {-}{}{}T\discretionary {-}{}{}T\discretionary {-}{}{}R}{7}{subsubsection.2.1.1.33}
\contentsline {subsubsection}{\numberline {2.1.1.34}C\discretionary {-}{}{}H\discretionary {-}{}{}E\discretionary {-}{}{}M\discretionary {-}{}{}\_\discretionary {-}{}{}\discretionary {-}{}{}A\discretionary {-}{}{}P\discretionary {-}{}{}I\discretionary {-}{}{}\_\discretionary {-}{}{}\discretionary {-}{}{}S\discretionary {-}{}{}E\discretionary {-}{}{}A\discretionary {-}{}{}R\discretionary {-}{}{}C\discretionary {-}{}{}H\discretionary {-}{}{}A\discretionary {-}{}{}B\discretionary {-}{}{}K\discretionary {-}{}{}D\discretionary {-}{}{}\_\discretionary {-}{}{}\discretionary {-}{}{}T\discretionary {-}{}{}R\discretionary {-}{}{}L\discretionary {-}{}{}A\discretionary {-}{}{}S\discretionary {-}{}{}T\discretionary {-}{}{}T\discretionary {-}{}{}E\discretionary {-}{}{}X\discretionary {-}{}{}T}{8}{subsubsection.2.1.1.34}
\contentsline {section}{\numberline {2.2}\IeC {\CYRF }\IeC {\cyra }\IeC {\cyrishrt }\IeC {\cyrl } chem\discretionary {-}{}{}Calc\discretionary {-}{}{}\_\discretionary {-}{}{}\discretionary {-}{}{}A\discretionary {-}{}{}P\discretionary {-}{}{}I.\discretionary {-}{}{}php}{8}{section.2.2}
\contentsline {subsection}{\numberline {2.2.1}\IeC {\CYRF }\IeC {\cyru }\IeC {\cyrn }\IeC {\cyrk }\IeC {\cyrc }\IeC {\cyri }\IeC {\cyri }}{8}{subsection.2.2.1}
\contentsline {subsubsection}{\numberline {2.2.1.1}\discretionary {-}{}{}\_\discretionary {-}{}{}p\discretionary {-}{}{}Kdfmt}{8}{subsubsection.2.2.1.1}
\contentsline {subsubsection}{\numberline {2.2.1.2}chem\discretionary {-}{}{}\_\discretionary {-}{}{}main}{9}{subsubsection.2.2.1.2}
\contentsline {subsubsection}{\numberline {2.2.1.3}chem\discretionary {-}{}{}\_\discretionary {-}{}{}main\discretionary {-}{}{}\_\discretionary {-}{}{}ph}{9}{subsubsection.2.2.1.3}
\contentsline {subsubsection}{\numberline {2.2.1.4}chem\discretionary {-}{}{}\_\discretionary {-}{}{}main\discretionary {-}{}{}\_\discretionary {-}{}{}search\discretionary {-}{}{}A\discretionary {-}{}{}B\discretionary {-}{}{}Kd}{10}{subsubsection.2.2.1.4}
\contentsline {subsubsection}{\numberline {2.2.1.5}chem\discretionary {-}{}{}\_\discretionary {-}{}{}p\discretionary {-}{}{}H}{11}{subsubsection.2.2.1.5}
\contentsline {subsubsection}{\numberline {2.2.1.6}chem\discretionary {-}{}{}\_\discretionary {-}{}{}search\discretionary {-}{}{}Acid\discretionary {-}{}{}Base\discretionary {-}{}{}Kd}{12}{subsubsection.2.2.1.6}
\contentsline {subsection}{\numberline {2.2.2}\IeC {\CYRP }\IeC {\cyre }\IeC {\cyrr }\IeC {\cyre }\IeC {\cyrm }\IeC {\cyre }\IeC {\cyrn }\IeC {\cyrn }\IeC {\cyrery }\IeC {\cyre }}{13}{subsection.2.2.2}
\contentsline {subsubsection}{\numberline {2.2.2.1}\$start}{13}{subsubsection.2.2.2.1}
\contentsline {subsubsection}{\numberline {2.2.2.2}\$time}{13}{subsubsection.2.2.2.2}
\contentsline {subsubsection}{\numberline {2.2.2.3}C\discretionary {-}{}{}H\discretionary {-}{}{}E\discretionary {-}{}{}M\discretionary {-}{}{}M\discretionary {-}{}{}O\discretionary {-}{}{}D\discretionary {-}{}{}U\discretionary {-}{}{}L\discretionary {-}{}{}E\discretionary {-}{}{}A\discretionary {-}{}{}P\discretionary {-}{}{}I}{14}{subsubsection.2.2.2.3}
\contentsline {section}{\numberline {2.3}\IeC {\CYRF }\IeC {\cyra }\IeC {\cyrishrt }\IeC {\cyrl } chem\discretionary {-}{}{}Calc\discretionary {-}{}{}\_\discretionary {-}{}{}\discretionary {-}{}{}D\discretionary {-}{}{}B.\discretionary {-}{}{}php}{14}{section.2.3}
\contentsline {subsection}{\numberline {2.3.1}\IeC {\CYRF }\IeC {\cyru }\IeC {\cyrn }\IeC {\cyrk }\IeC {\cyrc }\IeC {\cyri }\IeC {\cyri }}{14}{subsection.2.3.1}
\contentsline {subsubsection}{\numberline {2.3.1.1}array2\discretionary {-}{}{}\_\discretionary {-}{}{}search}{14}{subsubsection.2.3.1.1}
\contentsline {subsubsection}{\numberline {2.3.1.2}chem\discretionary {-}{}{}D\discretionary {-}{}{}B\discretionary {-}{}{}\_\discretionary {-}{}{}find\discretionary {-}{}{}Acid\discretionary {-}{}{}Base\discretionary {-}{}{}Kd\discretionary {-}{}{}Value}{15}{subsubsection.2.3.1.2}
\contentsline {subsubsection}{\numberline {2.3.1.3}chem\discretionary {-}{}{}D\discretionary {-}{}{}B\discretionary {-}{}{}\_\discretionary {-}{}{}read\discretionary {-}{}{}Acid\discretionary {-}{}{}Base\discretionary {-}{}{}Kd\discretionary {-}{}{}Table}{15}{subsubsection.2.3.1.3}
\contentsline {subsubsection}{\numberline {2.3.1.4}chem\discretionary {-}{}{}D\discretionary {-}{}{}B\discretionary {-}{}{}\_\discretionary {-}{}{}read\discretionary {-}{}{}Acid\discretionary {-}{}{}Kd\discretionary {-}{}{}Table}{16}{subsubsection.2.3.1.4}
\contentsline {subsubsection}{\numberline {2.3.1.5}chem\discretionary {-}{}{}D\discretionary {-}{}{}B\discretionary {-}{}{}\_\discretionary {-}{}{}read\discretionary {-}{}{}Base\discretionary {-}{}{}Kd\discretionary {-}{}{}Table}{16}{subsubsection.2.3.1.5}
\contentsline {subsubsection}{\numberline {2.3.1.6}chem\discretionary {-}{}{}D\discretionary {-}{}{}B\discretionary {-}{}{}\_\discretionary {-}{}{}search\discretionary {-}{}{}N\discretionary {-}{}{}Acid\discretionary {-}{}{}Base\discretionary {-}{}{}Kd\discretionary {-}{}{}Value}{16}{subsubsection.2.3.1.6}
\contentsline {subsubsection}{\numberline {2.3.1.7}read\discretionary {-}{}{}C\discretionary {-}{}{}S\discretionary {-}{}{}V}{17}{subsubsection.2.3.1.7}
\contentsline {section}{\numberline {2.4}\IeC {\CYRF }\IeC {\cyra }\IeC {\cyrishrt }\IeC {\cyrl } chem\discretionary {-}{}{}Calc\discretionary {-}{}{}\_\discretionary {-}{}{}p\discretionary {-}{}{}H.\discretionary {-}{}{}php}{18}{section.2.4}
\contentsline {subsection}{\numberline {2.4.1}\IeC {\CYRF }\IeC {\cyru }\IeC {\cyrn }\IeC {\cyrk }\IeC {\cyrc }\IeC {\cyri }\IeC {\cyri }}{18}{subsection.2.4.1}
\contentsline {subsubsection}{\numberline {2.4.1.1}calc\discretionary {-}{}{}\_\discretionary {-}{}{}\discretionary {-}{}{}Quadratic}{18}{subsubsection.2.4.1.1}
\contentsline {subsubsection}{\numberline {2.4.1.2}chem\discretionary {-}{}{}Calc\discretionary {-}{}{}\_\discretionary {-}{}{}concentration\discretionary {-}{}{}H\discretionary {-}{}{}O\discretionary {-}{}{}H\discretionary {-}{}{}\_\discretionary {-}{}{}common\discretionary {-}{}{}F}{19}{subsubsection.2.4.1.2}
\contentsline {subsubsection}{\numberline {2.4.1.3}chem\discretionary {-}{}{}Calc\discretionary {-}{}{}\_\discretionary {-}{}{}concentration\discretionary {-}{}{}H\discretionary {-}{}{}O\discretionary {-}{}{}H\discretionary {-}{}{}\_\discretionary {-}{}{}simplified\discretionary {-}{}{}F}{20}{subsubsection.2.4.1.3}
\contentsline {subsubsection}{\numberline {2.4.1.4}chem\discretionary {-}{}{}Calc\discretionary {-}{}{}\_\discretionary {-}{}{}\discretionary {-}{}{}Ostwald\discretionary {-}{}{}Dilution}{21}{subsubsection.2.4.1.4}
\contentsline {section}{\numberline {2.5}\IeC {\CYRF }\IeC {\cyra }\IeC {\cyrishrt }\IeC {\cyrl } chem\discretionary {-}{}{}Calc\discretionary {-}{}{}\_\discretionary {-}{}{}\discretionary {-}{}{}R\discretionary {-}{}{}U.\discretionary {-}{}{}php}{22}{section.2.5}
