\relax 
\providecommand\hyper@newdestlabel[2]{}
\catcode `"\active 
\providecommand\HyperFirstAtBeginDocument{\AtBeginDocument}
\HyperFirstAtBeginDocument{\ifx\hyper@anchor\@undefined
\global\let\oldcontentsline\contentsline
\gdef\contentsline#1#2#3#4{\oldcontentsline{#1}{#2}{#3}}
\global\let\oldnewlabel\newlabel
\gdef\newlabel#1#2{\newlabelxx{#1}#2}
\gdef\newlabelxx#1#2#3#4#5#6{\oldnewlabel{#1}{{#2}{#3}}}
\AtEndDocument{\ifx\hyper@anchor\@undefined
\let\contentsline\oldcontentsline
\let\newlabel\oldnewlabel
\fi}
\fi}
\global\let\hyper@last\relax 
\gdef\HyperFirstAtBeginDocument#1{#1}
\providecommand\HyField@AuxAddToFields[1]{}
\providecommand\HyField@AuxAddToCoFields[2]{}
\select@language{russian}
\@writefile{toc}{\select@language{russian}}
\@writefile{lof}{\select@language{russian}}
\@writefile{lot}{\select@language{russian}}
\@writefile{toc}{\contentsline {chapter}{\numberline {1}\IeC {\CYRS }\IeC {\cyrp }\IeC {\cyri }\IeC {\cyrs }\IeC {\cyro }\IeC {\cyrk } \IeC {\cyrf }\IeC {\cyra }\IeC {\cyrishrt }\IeC {\cyrl }\IeC {\cyro }\IeC {\cyrv }}{1}{chapter.1}}
\@writefile{lof}{\addvspace {10\p@ }}
\@writefile{lot}{\addvspace {10\p@ }}
\@writefile{toc}{\contentsline {section}{\numberline {1.1}\IeC {\CYRF }\IeC {\cyra }\IeC {\cyrishrt }\IeC {\cyrl }\IeC {\cyrery }}{1}{section.1.1}}
\@writefile{toc}{\contentsline {chapter}{\numberline {2}\IeC {\CYRF }\IeC {\cyra }\IeC {\cyrishrt }\IeC {\cyrl }\IeC {\cyrery }}{3}{chapter.2}}
\@writefile{lof}{\addvspace {10\p@ }}
\@writefile{lot}{\addvspace {10\p@ }}
\@writefile{toc}{\contentsline {section}{\numberline {2.1}\IeC {\CYRF }\IeC {\cyra }\IeC {\cyrishrt }\IeC {\cyrl } chem\discretionary {-}{}{}Calc.\discretionary {-}{}{}inc.\discretionary {-}{}{}php}{3}{section.2.1}}
\newlabel{chem_calc_8inc_8php}{{2.1}{3}{Файл chem\-Calc.\-inc.\-php}{section.2.1}{}}
\@writefile{toc}{\contentsline {subsection}{\numberline {2.1.1}\IeC {\CYRP }\IeC {\cyre }\IeC {\cyrr }\IeC {\cyre }\IeC {\cyrm }\IeC {\cyre }\IeC {\cyrn }\IeC {\cyrn }\IeC {\cyrery }\IeC {\cyre }}{4}{subsection.2.1.1}}
\@writefile{toc}{\contentsline {subsubsection}{\numberline {2.1.1.1}\$chem\discretionary {-}{}{}D\discretionary {-}{}{}B\discretionary {-}{}{}\_\discretionary {-}{}{}tables}{4}{subsubsection.2.1.1.1}}
\newlabel{chem_calc_8inc_8php_ad7c2db6ce9099c565507039e8dd37474}{{2.1.1.1}{4}{\$chem\-D\-B\-\_\-tables}{subsubsection.2.1.1.1}{}}
\@writefile{toc}{\contentsline {subsubsection}{\numberline {2.1.1.2}C\discretionary {-}{}{}H\discretionary {-}{}{}E\discretionary {-}{}{}M\discretionary {-}{}{}\_\discretionary {-}{}{}\discretionary {-}{}{}A\discretionary {-}{}{}P\discretionary {-}{}{}I\discretionary {-}{}{}\_\discretionary {-}{}{}\discretionary {-}{}{}A\discretionary {-}{}{}C\discretionary {-}{}{}T\discretionary {-}{}{}I\discretionary {-}{}{}O\discretionary {-}{}{}N}{4}{subsubsection.2.1.1.2}}
\newlabel{chem_calc_8inc_8php_ad1e845104d1f2e471f73a8f0cb29044b}{{2.1.1.2}{4}{C\-H\-E\-M\-\_\-\-A\-P\-I\-\_\-\-A\-C\-T\-I\-O\-N}{subsubsection.2.1.1.2}{}}
\@writefile{toc}{\contentsline {subsubsection}{\numberline {2.1.1.3}C\discretionary {-}{}{}H\discretionary {-}{}{}E\discretionary {-}{}{}M\discretionary {-}{}{}\_\discretionary {-}{}{}\discretionary {-}{}{}A\discretionary {-}{}{}P\discretionary {-}{}{}I\discretionary {-}{}{}\_\discretionary {-}{}{}\discretionary {-}{}{}A\discretionary {-}{}{}R\discretionary {-}{}{}R\discretionary {-}{}{}A\discretionary {-}{}{}Y\discretionary {-}{}{}\_\discretionary {-}{}{}\discretionary {-}{}{}L\discretionary {-}{}{}A\discretionary {-}{}{}N\discretionary {-}{}{}G\discretionary {-}{}{}\_\discretionary {-}{}{}\discretionary {-}{}{}R\discretionary {-}{}{}U\discretionary {-}{}{}S}{4}{subsubsection.2.1.1.3}}
\newlabel{chem_calc_8inc_8php_ad6bda2200e3b420ab46b0c3c506344a8}{{2.1.1.3}{4}{C\-H\-E\-M\-\_\-\-A\-P\-I\-\_\-\-A\-R\-R\-A\-Y\-\_\-\-L\-A\-N\-G\-\_\-\-R\-U\-S}{subsubsection.2.1.1.3}{}}
\@writefile{toc}{\contentsline {subsubsection}{\numberline {2.1.1.4}C\discretionary {-}{}{}H\discretionary {-}{}{}E\discretionary {-}{}{}M\discretionary {-}{}{}\_\discretionary {-}{}{}\discretionary {-}{}{}A\discretionary {-}{}{}P\discretionary {-}{}{}I\discretionary {-}{}{}\_\discretionary {-}{}{}\discretionary {-}{}{}A\discretionary {-}{}{}R\discretionary {-}{}{}R\discretionary {-}{}{}A\discretionary {-}{}{}Y\discretionary {-}{}{}\_\discretionary {-}{}{}\discretionary {-}{}{}S\discretionary {-}{}{}O\discretionary {-}{}{}U\discretionary {-}{}{}R\discretionary {-}{}{}C\discretionary {-}{}{}E\discretionary {-}{}{}S}{4}{subsubsection.2.1.1.4}}
\newlabel{chem_calc_8inc_8php_a521b80b6f8ebe0974929d60ef7d7b8aa}{{2.1.1.4}{4}{C\-H\-E\-M\-\_\-\-A\-P\-I\-\_\-\-A\-R\-R\-A\-Y\-\_\-\-S\-O\-U\-R\-C\-E\-S}{subsubsection.2.1.1.4}{}}
\@writefile{toc}{\contentsline {subsubsection}{\numberline {2.1.1.5}C\discretionary {-}{}{}H\discretionary {-}{}{}E\discretionary {-}{}{}M\discretionary {-}{}{}\_\discretionary {-}{}{}\discretionary {-}{}{}A\discretionary {-}{}{}P\discretionary {-}{}{}I\discretionary {-}{}{}\_\discretionary {-}{}{}\discretionary {-}{}{}A\discretionary {-}{}{}R\discretionary {-}{}{}R\discretionary {-}{}{}A\discretionary {-}{}{}Y\discretionary {-}{}{}\_\discretionary {-}{}{}\discretionary {-}{}{}T\discretionary {-}{}{}A\discretionary {-}{}{}B\discretionary {-}{}{}L\discretionary {-}{}{}E}{4}{subsubsection.2.1.1.5}}
\newlabel{chem_calc_8inc_8php_ab84bf23e87c015828b49797ca2eb2b08}{{2.1.1.5}{4}{C\-H\-E\-M\-\_\-\-A\-P\-I\-\_\-\-A\-R\-R\-A\-Y\-\_\-\-T\-A\-B\-L\-E}{subsubsection.2.1.1.5}{}}
\@writefile{toc}{\contentsline {subsubsection}{\numberline {2.1.1.6}C\discretionary {-}{}{}H\discretionary {-}{}{}E\discretionary {-}{}{}M\discretionary {-}{}{}\_\discretionary {-}{}{}\discretionary {-}{}{}A\discretionary {-}{}{}P\discretionary {-}{}{}I\discretionary {-}{}{}\_\discretionary {-}{}{}\discretionary {-}{}{}P\discretionary {-}{}{}H}{5}{subsubsection.2.1.1.6}}
\newlabel{chem_calc_8inc_8php_a799c4ceb70e23ba56e7bf5bf85e1c8dc}{{2.1.1.6}{5}{C\-H\-E\-M\-\_\-\-A\-P\-I\-\_\-\-P\-H}{subsubsection.2.1.1.6}{}}
\@writefile{toc}{\contentsline {subsubsection}{\numberline {2.1.1.7}C\discretionary {-}{}{}H\discretionary {-}{}{}E\discretionary {-}{}{}M\discretionary {-}{}{}\_\discretionary {-}{}{}\discretionary {-}{}{}A\discretionary {-}{}{}P\discretionary {-}{}{}I\discretionary {-}{}{}\_\discretionary {-}{}{}\discretionary {-}{}{}P\discretionary {-}{}{}H\discretionary {-}{}{}\_\discretionary {-}{}{}\discretionary {-}{}{}C\discretionary {-}{}{}O\discretionary {-}{}{}N\discretionary {-}{}{}C\discretionary {-}{}{}E\discretionary {-}{}{}N\discretionary {-}{}{}T\discretionary {-}{}{}R\discretionary {-}{}{}A\discretionary {-}{}{}T\discretionary {-}{}{}I\discretionary {-}{}{}O\discretionary {-}{}{}N}{5}{subsubsection.2.1.1.7}}
\newlabel{chem_calc_8inc_8php_a4d0d8bd5219b233a29448e9b26120126}{{2.1.1.7}{5}{C\-H\-E\-M\-\_\-\-A\-P\-I\-\_\-\-P\-H\-\_\-\-C\-O\-N\-C\-E\-N\-T\-R\-A\-T\-I\-O\-N}{subsubsection.2.1.1.7}{}}
\@writefile{toc}{\contentsline {subsubsection}{\numberline {2.1.1.8}C\discretionary {-}{}{}H\discretionary {-}{}{}E\discretionary {-}{}{}M\discretionary {-}{}{}\_\discretionary {-}{}{}\discretionary {-}{}{}A\discretionary {-}{}{}P\discretionary {-}{}{}I\discretionary {-}{}{}\_\discretionary {-}{}{}\discretionary {-}{}{}P\discretionary {-}{}{}H\discretionary {-}{}{}\_\discretionary {-}{}{}\discretionary {-}{}{}F\discretionary {-}{}{}O\discretionary {-}{}{}R\discretionary {-}{}{}M\discretionary {-}{}{}U\discretionary {-}{}{}L\discretionary {-}{}{}A}{5}{subsubsection.2.1.1.8}}
\newlabel{chem_calc_8inc_8php_afcc2746bc359388aa5598851fb879419}{{2.1.1.8}{5}{C\-H\-E\-M\-\_\-\-A\-P\-I\-\_\-\-P\-H\-\_\-\-F\-O\-R\-M\-U\-L\-A}{subsubsection.2.1.1.8}{}}
\@writefile{toc}{\contentsline {subsubsection}{\numberline {2.1.1.9}C\discretionary {-}{}{}H\discretionary {-}{}{}E\discretionary {-}{}{}M\discretionary {-}{}{}\_\discretionary {-}{}{}\discretionary {-}{}{}A\discretionary {-}{}{}P\discretionary {-}{}{}I\discretionary {-}{}{}\_\discretionary {-}{}{}\discretionary {-}{}{}P\discretionary {-}{}{}H\discretionary {-}{}{}\_\discretionary {-}{}{}\discretionary {-}{}{}K\discretionary {-}{}{}D1}{5}{subsubsection.2.1.1.9}}
\newlabel{chem_calc_8inc_8php_a38416c0f381d79802ce9df342fa24f91}{{2.1.1.9}{5}{C\-H\-E\-M\-\_\-\-A\-P\-I\-\_\-\-P\-H\-\_\-\-K\-D1}{subsubsection.2.1.1.9}{}}
\@writefile{toc}{\contentsline {subsubsection}{\numberline {2.1.1.10}C\discretionary {-}{}{}H\discretionary {-}{}{}E\discretionary {-}{}{}M\discretionary {-}{}{}\_\discretionary {-}{}{}\discretionary {-}{}{}A\discretionary {-}{}{}P\discretionary {-}{}{}I\discretionary {-}{}{}\_\discretionary {-}{}{}\discretionary {-}{}{}P\discretionary {-}{}{}H\discretionary {-}{}{}\_\discretionary {-}{}{}\discretionary {-}{}{}K\discretionary {-}{}{}D2}{5}{subsubsection.2.1.1.10}}
\newlabel{chem_calc_8inc_8php_ae48e4d5cda79d3531905fce1523bbebe}{{2.1.1.10}{5}{C\-H\-E\-M\-\_\-\-A\-P\-I\-\_\-\-P\-H\-\_\-\-K\-D2}{subsubsection.2.1.1.10}{}}
\@writefile{toc}{\contentsline {subsubsection}{\numberline {2.1.1.11}C\discretionary {-}{}{}H\discretionary {-}{}{}E\discretionary {-}{}{}M\discretionary {-}{}{}\_\discretionary {-}{}{}\discretionary {-}{}{}A\discretionary {-}{}{}P\discretionary {-}{}{}I\discretionary {-}{}{}\_\discretionary {-}{}{}\discretionary {-}{}{}P\discretionary {-}{}{}H\discretionary {-}{}{}\_\discretionary {-}{}{}\discretionary {-}{}{}K\discretionary {-}{}{}D3}{5}{subsubsection.2.1.1.11}}
\newlabel{chem_calc_8inc_8php_ac0c84760c57b064858a52a35ada396fd}{{2.1.1.11}{5}{C\-H\-E\-M\-\_\-\-A\-P\-I\-\_\-\-P\-H\-\_\-\-K\-D3}{subsubsection.2.1.1.11}{}}
\@writefile{toc}{\contentsline {subsubsection}{\numberline {2.1.1.12}C\discretionary {-}{}{}H\discretionary {-}{}{}E\discretionary {-}{}{}M\discretionary {-}{}{}\_\discretionary {-}{}{}\discretionary {-}{}{}A\discretionary {-}{}{}P\discretionary {-}{}{}I\discretionary {-}{}{}\_\discretionary {-}{}{}\discretionary {-}{}{}P\discretionary {-}{}{}H\discretionary {-}{}{}\_\discretionary {-}{}{}\discretionary {-}{}{}K\discretionary {-}{}{}W}{5}{subsubsection.2.1.1.12}}
\newlabel{chem_calc_8inc_8php_a4d97612fb264e6608d787d429686c556}{{2.1.1.12}{5}{C\-H\-E\-M\-\_\-\-A\-P\-I\-\_\-\-P\-H\-\_\-\-K\-W}{subsubsection.2.1.1.12}{}}
\@writefile{toc}{\contentsline {subsubsection}{\numberline {2.1.1.13}C\discretionary {-}{}{}H\discretionary {-}{}{}E\discretionary {-}{}{}M\discretionary {-}{}{}\_\discretionary {-}{}{}\discretionary {-}{}{}A\discretionary {-}{}{}P\discretionary {-}{}{}I\discretionary {-}{}{}\_\discretionary {-}{}{}\discretionary {-}{}{}P\discretionary {-}{}{}H\discretionary {-}{}{}\_\discretionary {-}{}{}\discretionary {-}{}{}M\discretionary {-}{}{}A\discretionary {-}{}{}X\discretionary {-}{}{}I\discretionary {-}{}{}T\discretionary {-}{}{}E\discretionary {-}{}{}R}{5}{subsubsection.2.1.1.13}}
\newlabel{chem_calc_8inc_8php_a5b5a00466888a167fb656452c420c3d5}{{2.1.1.13}{5}{C\-H\-E\-M\-\_\-\-A\-P\-I\-\_\-\-P\-H\-\_\-\-M\-A\-X\-I\-T\-E\-R}{subsubsection.2.1.1.13}{}}
\@writefile{toc}{\contentsline {subsubsection}{\numberline {2.1.1.14}C\discretionary {-}{}{}H\discretionary {-}{}{}E\discretionary {-}{}{}M\discretionary {-}{}{}\_\discretionary {-}{}{}\discretionary {-}{}{}A\discretionary {-}{}{}P\discretionary {-}{}{}I\discretionary {-}{}{}\_\discretionary {-}{}{}\discretionary {-}{}{}P\discretionary {-}{}{}H\discretionary {-}{}{}\_\discretionary {-}{}{}\discretionary {-}{}{}M\discretionary {-}{}{}O\discretionary {-}{}{}D\discretionary {-}{}{}E}{5}{subsubsection.2.1.1.14}}
\newlabel{chem_calc_8inc_8php_a2242f25295af2d3af1f2a76f56bf9fb1}{{2.1.1.14}{5}{C\-H\-E\-M\-\_\-\-A\-P\-I\-\_\-\-P\-H\-\_\-\-M\-O\-D\-E}{subsubsection.2.1.1.14}{}}
\@writefile{toc}{\contentsline {subsubsection}{\numberline {2.1.1.15}C\discretionary {-}{}{}H\discretionary {-}{}{}E\discretionary {-}{}{}M\discretionary {-}{}{}\_\discretionary {-}{}{}\discretionary {-}{}{}A\discretionary {-}{}{}P\discretionary {-}{}{}I\discretionary {-}{}{}\_\discretionary {-}{}{}\discretionary {-}{}{}P\discretionary {-}{}{}H\discretionary {-}{}{}\_\discretionary {-}{}{}\discretionary {-}{}{}O\discretionary {-}{}{}U\discretionary {-}{}{}T\discretionary {-}{}{}P\discretionary {-}{}{}U\discretionary {-}{}{}T\discretionary {-}{}{}M\discretionary {-}{}{}O\discretionary {-}{}{}D\discretionary {-}{}{}E}{5}{subsubsection.2.1.1.15}}
\newlabel{chem_calc_8inc_8php_a998d7fd0a47f5dff7ec75acd482f117f}{{2.1.1.15}{5}{C\-H\-E\-M\-\_\-\-A\-P\-I\-\_\-\-P\-H\-\_\-\-O\-U\-T\-P\-U\-T\-M\-O\-D\-E}{subsubsection.2.1.1.15}{}}
\@writefile{toc}{\contentsline {subsubsection}{\numberline {2.1.1.16}C\discretionary {-}{}{}H\discretionary {-}{}{}E\discretionary {-}{}{}M\discretionary {-}{}{}\_\discretionary {-}{}{}\discretionary {-}{}{}A\discretionary {-}{}{}P\discretionary {-}{}{}I\discretionary {-}{}{}\_\discretionary {-}{}{}\discretionary {-}{}{}P\discretionary {-}{}{}H\discretionary {-}{}{}\_\discretionary {-}{}{}\discretionary {-}{}{}U\discretionary {-}{}{}S\discretionary {-}{}{}E\discretionary {-}{}{}O\discretionary {-}{}{}W\discretionary {-}{}{}N}{6}{subsubsection.2.1.1.16}}
\newlabel{chem_calc_8inc_8php_a625a13ef449b3b93f75bb7b984f2d43a}{{2.1.1.16}{6}{C\-H\-E\-M\-\_\-\-A\-P\-I\-\_\-\-P\-H\-\_\-\-U\-S\-E\-O\-W\-N}{subsubsection.2.1.1.16}{}}
\@writefile{toc}{\contentsline {subsubsection}{\numberline {2.1.1.17}C\discretionary {-}{}{}H\discretionary {-}{}{}E\discretionary {-}{}{}M\discretionary {-}{}{}\_\discretionary {-}{}{}\discretionary {-}{}{}A\discretionary {-}{}{}P\discretionary {-}{}{}I\discretionary {-}{}{}\_\discretionary {-}{}{}\discretionary {-}{}{}S\discretionary {-}{}{}E\discretionary {-}{}{}A\discretionary {-}{}{}R\discretionary {-}{}{}C\discretionary {-}{}{}H\discretionary {-}{}{}A\discretionary {-}{}{}B\discretionary {-}{}{}K\discretionary {-}{}{}D}{6}{subsubsection.2.1.1.17}}
\newlabel{chem_calc_8inc_8php_a448bed0d24df074c13975a4e6c733ba2}{{2.1.1.17}{6}{C\-H\-E\-M\-\_\-\-A\-P\-I\-\_\-\-S\-E\-A\-R\-C\-H\-A\-B\-K\-D}{subsubsection.2.1.1.17}{}}
\@writefile{toc}{\contentsline {subsubsection}{\numberline {2.1.1.18}C\discretionary {-}{}{}H\discretionary {-}{}{}E\discretionary {-}{}{}M\discretionary {-}{}{}\_\discretionary {-}{}{}\discretionary {-}{}{}A\discretionary {-}{}{}P\discretionary {-}{}{}I\discretionary {-}{}{}\_\discretionary {-}{}{}\discretionary {-}{}{}S\discretionary {-}{}{}E\discretionary {-}{}{}A\discretionary {-}{}{}R\discretionary {-}{}{}C\discretionary {-}{}{}H\discretionary {-}{}{}A\discretionary {-}{}{}B\discretionary {-}{}{}K\discretionary {-}{}{}D\discretionary {-}{}{}\_\discretionary {-}{}{}\discretionary {-}{}{}C\discretionary {-}{}{}A\discretionary {-}{}{}S\discretionary {-}{}{}E\discretionary {-}{}{}S\discretionary {-}{}{}E\discretionary {-}{}{}N}{6}{subsubsection.2.1.1.18}}
\newlabel{chem_calc_8inc_8php_ae2e06ffc102689c9e8a69783ce7d490b}{{2.1.1.18}{6}{C\-H\-E\-M\-\_\-\-A\-P\-I\-\_\-\-S\-E\-A\-R\-C\-H\-A\-B\-K\-D\-\_\-\-C\-A\-S\-E\-S\-E\-N}{subsubsection.2.1.1.18}{}}
\@writefile{toc}{\contentsline {subsubsection}{\numberline {2.1.1.19}C\discretionary {-}{}{}H\discretionary {-}{}{}E\discretionary {-}{}{}M\discretionary {-}{}{}\_\discretionary {-}{}{}\discretionary {-}{}{}A\discretionary {-}{}{}P\discretionary {-}{}{}I\discretionary {-}{}{}\_\discretionary {-}{}{}\discretionary {-}{}{}S\discretionary {-}{}{}E\discretionary {-}{}{}A\discretionary {-}{}{}R\discretionary {-}{}{}C\discretionary {-}{}{}H\discretionary {-}{}{}A\discretionary {-}{}{}B\discretionary {-}{}{}K\discretionary {-}{}{}D\discretionary {-}{}{}\_\discretionary {-}{}{}\discretionary {-}{}{}L\discretionary {-}{}{}A\discretionary {-}{}{}N\discretionary {-}{}{}G\discretionary {-}{}{}\_\discretionary {-}{}{}\discretionary {-}{}{}F\discretionary {-}{}{}O\discretionary {-}{}{}R\discretionary {-}{}{}M\discretionary {-}{}{}U\discretionary {-}{}{}L\discretionary {-}{}{}A}{6}{subsubsection.2.1.1.19}}
\newlabel{chem_calc_8inc_8php_abaa85051408aed72dbf362c70b54e81a}{{2.1.1.19}{6}{C\-H\-E\-M\-\_\-\-A\-P\-I\-\_\-\-S\-E\-A\-R\-C\-H\-A\-B\-K\-D\-\_\-\-L\-A\-N\-G\-\_\-\-F\-O\-R\-M\-U\-L\-A}{subsubsection.2.1.1.19}{}}
\@writefile{toc}{\contentsline {subsubsection}{\numberline {2.1.1.20}C\discretionary {-}{}{}H\discretionary {-}{}{}E\discretionary {-}{}{}M\discretionary {-}{}{}\_\discretionary {-}{}{}\discretionary {-}{}{}A\discretionary {-}{}{}P\discretionary {-}{}{}I\discretionary {-}{}{}\_\discretionary {-}{}{}\discretionary {-}{}{}S\discretionary {-}{}{}E\discretionary {-}{}{}A\discretionary {-}{}{}R\discretionary {-}{}{}C\discretionary {-}{}{}H\discretionary {-}{}{}A\discretionary {-}{}{}B\discretionary {-}{}{}K\discretionary {-}{}{}D\discretionary {-}{}{}\_\discretionary {-}{}{}\discretionary {-}{}{}L\discretionary {-}{}{}A\discretionary {-}{}{}N\discretionary {-}{}{}G\discretionary {-}{}{}\_\discretionary {-}{}{}\discretionary {-}{}{}N\discretionary {-}{}{}A\discretionary {-}{}{}M\discretionary {-}{}{}E}{6}{subsubsection.2.1.1.20}}
\newlabel{chem_calc_8inc_8php_a4274e3ff90eb78bfe3aba7fb258bfc22}{{2.1.1.20}{6}{C\-H\-E\-M\-\_\-\-A\-P\-I\-\_\-\-S\-E\-A\-R\-C\-H\-A\-B\-K\-D\-\_\-\-L\-A\-N\-G\-\_\-\-N\-A\-M\-E}{subsubsection.2.1.1.20}{}}
\@writefile{toc}{\contentsline {subsubsection}{\numberline {2.1.1.21}C\discretionary {-}{}{}H\discretionary {-}{}{}E\discretionary {-}{}{}M\discretionary {-}{}{}\_\discretionary {-}{}{}\discretionary {-}{}{}A\discretionary {-}{}{}P\discretionary {-}{}{}I\discretionary {-}{}{}\_\discretionary {-}{}{}\discretionary {-}{}{}S\discretionary {-}{}{}E\discretionary {-}{}{}A\discretionary {-}{}{}R\discretionary {-}{}{}C\discretionary {-}{}{}H\discretionary {-}{}{}A\discretionary {-}{}{}B\discretionary {-}{}{}K\discretionary {-}{}{}D\discretionary {-}{}{}\_\discretionary {-}{}{}\discretionary {-}{}{}L\discretionary {-}{}{}A\discretionary {-}{}{}N\discretionary {-}{}{}G\discretionary {-}{}{}\_\discretionary {-}{}{}\discretionary {-}{}{}N\discretionary {-}{}{}O\discretionary {-}{}{}T\discretionary {-}{}{}A\discretionary {-}{}{}L\discretionary {-}{}{}L\discretionary {-}{}{}R\discretionary {-}{}{}E\discretionary {-}{}{}S\discretionary {-}{}{}U\discretionary {-}{}{}L\discretionary {-}{}{}T\discretionary {-}{}{}S}{6}{subsubsection.2.1.1.21}}
\newlabel{chem_calc_8inc_8php_a62b4b271c19586afa265c978d1dd5687}{{2.1.1.21}{6}{C\-H\-E\-M\-\_\-\-A\-P\-I\-\_\-\-S\-E\-A\-R\-C\-H\-A\-B\-K\-D\-\_\-\-L\-A\-N\-G\-\_\-\-N\-O\-T\-A\-L\-L\-R\-E\-S\-U\-L\-T\-S}{subsubsection.2.1.1.21}{}}
\@writefile{toc}{\contentsline {subsubsection}{\numberline {2.1.1.22}C\discretionary {-}{}{}H\discretionary {-}{}{}E\discretionary {-}{}{}M\discretionary {-}{}{}\_\discretionary {-}{}{}\discretionary {-}{}{}A\discretionary {-}{}{}P\discretionary {-}{}{}I\discretionary {-}{}{}\_\discretionary {-}{}{}\discretionary {-}{}{}S\discretionary {-}{}{}E\discretionary {-}{}{}A\discretionary {-}{}{}R\discretionary {-}{}{}C\discretionary {-}{}{}H\discretionary {-}{}{}A\discretionary {-}{}{}B\discretionary {-}{}{}K\discretionary {-}{}{}D\discretionary {-}{}{}\_\discretionary {-}{}{}\discretionary {-}{}{}L\discretionary {-}{}{}A\discretionary {-}{}{}N\discretionary {-}{}{}G\discretionary {-}{}{}\_\discretionary {-}{}{}\discretionary {-}{}{}N\discretionary {-}{}{}O\discretionary {-}{}{}T\discretionary {-}{}{}E\discretionary {-}{}{}S}{6}{subsubsection.2.1.1.22}}
\newlabel{chem_calc_8inc_8php_ace24acf706dea9b36b1342acf28239d2}{{2.1.1.22}{6}{C\-H\-E\-M\-\_\-\-A\-P\-I\-\_\-\-S\-E\-A\-R\-C\-H\-A\-B\-K\-D\-\_\-\-L\-A\-N\-G\-\_\-\-N\-O\-T\-E\-S}{subsubsection.2.1.1.22}{}}
\@writefile{toc}{\contentsline {subsubsection}{\numberline {2.1.1.23}C\discretionary {-}{}{}H\discretionary {-}{}{}E\discretionary {-}{}{}M\discretionary {-}{}{}\_\discretionary {-}{}{}\discretionary {-}{}{}A\discretionary {-}{}{}P\discretionary {-}{}{}I\discretionary {-}{}{}\_\discretionary {-}{}{}\discretionary {-}{}{}S\discretionary {-}{}{}E\discretionary {-}{}{}A\discretionary {-}{}{}R\discretionary {-}{}{}C\discretionary {-}{}{}H\discretionary {-}{}{}A\discretionary {-}{}{}B\discretionary {-}{}{}K\discretionary {-}{}{}D\discretionary {-}{}{}\_\discretionary {-}{}{}\discretionary {-}{}{}L\discretionary {-}{}{}A\discretionary {-}{}{}N\discretionary {-}{}{}G\discretionary {-}{}{}\_\discretionary {-}{}{}\discretionary {-}{}{}R\discretionary {-}{}{}E\discretionary {-}{}{}S\discretionary {-}{}{}U\discretionary {-}{}{}L\discretionary {-}{}{}T\discretionary {-}{}{}S}{6}{subsubsection.2.1.1.23}}
\newlabel{chem_calc_8inc_8php_ad6c57b56b377390e8aa0ebecf7aaa2da}{{2.1.1.23}{6}{C\-H\-E\-M\-\_\-\-A\-P\-I\-\_\-\-S\-E\-A\-R\-C\-H\-A\-B\-K\-D\-\_\-\-L\-A\-N\-G\-\_\-\-R\-E\-S\-U\-L\-T\-S}{subsubsection.2.1.1.23}{}}
\@writefile{toc}{\contentsline {subsubsection}{\numberline {2.1.1.24}C\discretionary {-}{}{}H\discretionary {-}{}{}E\discretionary {-}{}{}M\discretionary {-}{}{}\_\discretionary {-}{}{}\discretionary {-}{}{}A\discretionary {-}{}{}P\discretionary {-}{}{}I\discretionary {-}{}{}\_\discretionary {-}{}{}\discretionary {-}{}{}S\discretionary {-}{}{}E\discretionary {-}{}{}A\discretionary {-}{}{}R\discretionary {-}{}{}C\discretionary {-}{}{}H\discretionary {-}{}{}A\discretionary {-}{}{}B\discretionary {-}{}{}K\discretionary {-}{}{}D\discretionary {-}{}{}\_\discretionary {-}{}{}\discretionary {-}{}{}L\discretionary {-}{}{}A\discretionary {-}{}{}N\discretionary {-}{}{}G\discretionary {-}{}{}\_\discretionary {-}{}{}\discretionary {-}{}{}S\discretionary {-}{}{}O\discretionary {-}{}{}U\discretionary {-}{}{}R\discretionary {-}{}{}C\discretionary {-}{}{}E}{6}{subsubsection.2.1.1.24}}
\newlabel{chem_calc_8inc_8php_a34262f92db3adc64ed3193b008b07dc8}{{2.1.1.24}{6}{C\-H\-E\-M\-\_\-\-A\-P\-I\-\_\-\-S\-E\-A\-R\-C\-H\-A\-B\-K\-D\-\_\-\-L\-A\-N\-G\-\_\-\-S\-O\-U\-R\-C\-E}{subsubsection.2.1.1.24}{}}
\@writefile{toc}{\contentsline {subsubsection}{\numberline {2.1.1.25}C\discretionary {-}{}{}H\discretionary {-}{}{}E\discretionary {-}{}{}M\discretionary {-}{}{}\_\discretionary {-}{}{}\discretionary {-}{}{}A\discretionary {-}{}{}P\discretionary {-}{}{}I\discretionary {-}{}{}\_\discretionary {-}{}{}\discretionary {-}{}{}S\discretionary {-}{}{}E\discretionary {-}{}{}A\discretionary {-}{}{}R\discretionary {-}{}{}C\discretionary {-}{}{}H\discretionary {-}{}{}A\discretionary {-}{}{}B\discretionary {-}{}{}K\discretionary {-}{}{}D\discretionary {-}{}{}\_\discretionary {-}{}{}\discretionary {-}{}{}L\discretionary {-}{}{}A\discretionary {-}{}{}N\discretionary {-}{}{}G\discretionary {-}{}{}\_\discretionary {-}{}{}\discretionary {-}{}{}T\discretionary {-}{}{}E\discretionary {-}{}{}M\discretionary {-}{}{}P}{7}{subsubsection.2.1.1.25}}
\newlabel{chem_calc_8inc_8php_a30e51f617196d5a2e1e0fafeeeb8d498}{{2.1.1.25}{7}{C\-H\-E\-M\-\_\-\-A\-P\-I\-\_\-\-S\-E\-A\-R\-C\-H\-A\-B\-K\-D\-\_\-\-L\-A\-N\-G\-\_\-\-T\-E\-M\-P}{subsubsection.2.1.1.25}{}}
\@writefile{toc}{\contentsline {subsubsection}{\numberline {2.1.1.26}C\discretionary {-}{}{}H\discretionary {-}{}{}E\discretionary {-}{}{}M\discretionary {-}{}{}\_\discretionary {-}{}{}\discretionary {-}{}{}A\discretionary {-}{}{}P\discretionary {-}{}{}I\discretionary {-}{}{}\_\discretionary {-}{}{}\discretionary {-}{}{}S\discretionary {-}{}{}E\discretionary {-}{}{}A\discretionary {-}{}{}R\discretionary {-}{}{}C\discretionary {-}{}{}H\discretionary {-}{}{}A\discretionary {-}{}{}B\discretionary {-}{}{}K\discretionary {-}{}{}D\discretionary {-}{}{}\_\discretionary {-}{}{}\discretionary {-}{}{}M\discretionary {-}{}{}A\discretionary {-}{}{}X\discretionary {-}{}{}N}{7}{subsubsection.2.1.1.26}}
\newlabel{chem_calc_8inc_8php_add235471fcf362274855e2523293ac80}{{2.1.1.26}{7}{C\-H\-E\-M\-\_\-\-A\-P\-I\-\_\-\-S\-E\-A\-R\-C\-H\-A\-B\-K\-D\-\_\-\-M\-A\-X\-N}{subsubsection.2.1.1.26}{}}
\@writefile{toc}{\contentsline {subsubsection}{\numberline {2.1.1.27}C\discretionary {-}{}{}H\discretionary {-}{}{}E\discretionary {-}{}{}M\discretionary {-}{}{}\_\discretionary {-}{}{}\discretionary {-}{}{}A\discretionary {-}{}{}P\discretionary {-}{}{}I\discretionary {-}{}{}\_\discretionary {-}{}{}\discretionary {-}{}{}S\discretionary {-}{}{}E\discretionary {-}{}{}A\discretionary {-}{}{}R\discretionary {-}{}{}C\discretionary {-}{}{}H\discretionary {-}{}{}A\discretionary {-}{}{}B\discretionary {-}{}{}K\discretionary {-}{}{}D\discretionary {-}{}{}\_\discretionary {-}{}{}\discretionary {-}{}{}O\discretionary {-}{}{}U\discretionary {-}{}{}T\discretionary {-}{}{}P\discretionary {-}{}{}U\discretionary {-}{}{}T\discretionary {-}{}{}M\discretionary {-}{}{}O\discretionary {-}{}{}D\discretionary {-}{}{}E}{7}{subsubsection.2.1.1.27}}
\newlabel{chem_calc_8inc_8php_a5a4b2fcbc7fccdffbfb3b089b1abcaa6}{{2.1.1.27}{7}{C\-H\-E\-M\-\_\-\-A\-P\-I\-\_\-\-S\-E\-A\-R\-C\-H\-A\-B\-K\-D\-\_\-\-O\-U\-T\-P\-U\-T\-M\-O\-D\-E}{subsubsection.2.1.1.27}{}}
\@writefile{toc}{\contentsline {subsubsection}{\numberline {2.1.1.28}C\discretionary {-}{}{}H\discretionary {-}{}{}E\discretionary {-}{}{}M\discretionary {-}{}{}\_\discretionary {-}{}{}\discretionary {-}{}{}A\discretionary {-}{}{}P\discretionary {-}{}{}I\discretionary {-}{}{}\_\discretionary {-}{}{}\discretionary {-}{}{}S\discretionary {-}{}{}E\discretionary {-}{}{}A\discretionary {-}{}{}R\discretionary {-}{}{}C\discretionary {-}{}{}H\discretionary {-}{}{}A\discretionary {-}{}{}B\discretionary {-}{}{}K\discretionary {-}{}{}D\discretionary {-}{}{}\_\discretionary {-}{}{}\discretionary {-}{}{}R\discretionary {-}{}{}E\discretionary {-}{}{}G\discretionary {-}{}{}E\discretionary {-}{}{}X\discretionary {-}{}{}P}{7}{subsubsection.2.1.1.28}}
\newlabel{chem_calc_8inc_8php_ad1e522a8a80ee80a97500a53fc34bb71}{{2.1.1.28}{7}{C\-H\-E\-M\-\_\-\-A\-P\-I\-\_\-\-S\-E\-A\-R\-C\-H\-A\-B\-K\-D\-\_\-\-R\-E\-G\-E\-X\-P}{subsubsection.2.1.1.28}{}}
\@writefile{toc}{\contentsline {subsubsection}{\numberline {2.1.1.29}C\discretionary {-}{}{}H\discretionary {-}{}{}E\discretionary {-}{}{}M\discretionary {-}{}{}\_\discretionary {-}{}{}\discretionary {-}{}{}A\discretionary {-}{}{}P\discretionary {-}{}{}I\discretionary {-}{}{}\_\discretionary {-}{}{}\discretionary {-}{}{}S\discretionary {-}{}{}E\discretionary {-}{}{}A\discretionary {-}{}{}R\discretionary {-}{}{}C\discretionary {-}{}{}H\discretionary {-}{}{}A\discretionary {-}{}{}B\discretionary {-}{}{}K\discretionary {-}{}{}D\discretionary {-}{}{}\_\discretionary {-}{}{}\discretionary {-}{}{}S\discretionary {-}{}{}T\discretionary {-}{}{}R\discretionary {-}{}{}I\discretionary {-}{}{}N\discretionary {-}{}{}G}{7}{subsubsection.2.1.1.29}}
\newlabel{chem_calc_8inc_8php_a4ae6f316122970bfc0c5f2906174c4e2}{{2.1.1.29}{7}{C\-H\-E\-M\-\_\-\-A\-P\-I\-\_\-\-S\-E\-A\-R\-C\-H\-A\-B\-K\-D\-\_\-\-S\-T\-R\-I\-N\-G}{subsubsection.2.1.1.29}{}}
\@writefile{toc}{\contentsline {subsubsection}{\numberline {2.1.1.30}C\discretionary {-}{}{}H\discretionary {-}{}{}E\discretionary {-}{}{}M\discretionary {-}{}{}\_\discretionary {-}{}{}\discretionary {-}{}{}A\discretionary {-}{}{}P\discretionary {-}{}{}I\discretionary {-}{}{}\_\discretionary {-}{}{}\discretionary {-}{}{}S\discretionary {-}{}{}E\discretionary {-}{}{}A\discretionary {-}{}{}R\discretionary {-}{}{}C\discretionary {-}{}{}H\discretionary {-}{}{}A\discretionary {-}{}{}B\discretionary {-}{}{}K\discretionary {-}{}{}D\discretionary {-}{}{}\_\discretionary {-}{}{}\discretionary {-}{}{}S\discretionary {-}{}{}T\discretionary {-}{}{}Y\discretionary {-}{}{}L\discretionary {-}{}{}E}{7}{subsubsection.2.1.1.30}}
\newlabel{chem_calc_8inc_8php_a3e3c73caa5a04961ee37100306ea917b}{{2.1.1.30}{7}{C\-H\-E\-M\-\_\-\-A\-P\-I\-\_\-\-S\-E\-A\-R\-C\-H\-A\-B\-K\-D\-\_\-\-S\-T\-Y\-L\-E}{subsubsection.2.1.1.30}{}}
\@writefile{toc}{\contentsline {subsubsection}{\numberline {2.1.1.31}C\discretionary {-}{}{}H\discretionary {-}{}{}E\discretionary {-}{}{}M\discretionary {-}{}{}\_\discretionary {-}{}{}\discretionary {-}{}{}A\discretionary {-}{}{}P\discretionary {-}{}{}I\discretionary {-}{}{}\_\discretionary {-}{}{}\discretionary {-}{}{}S\discretionary {-}{}{}E\discretionary {-}{}{}A\discretionary {-}{}{}R\discretionary {-}{}{}C\discretionary {-}{}{}H\discretionary {-}{}{}A\discretionary {-}{}{}B\discretionary {-}{}{}K\discretionary {-}{}{}D\discretionary {-}{}{}\_\discretionary {-}{}{}\discretionary {-}{}{}T\discretionary {-}{}{}D\discretionary {-}{}{}I\discretionary {-}{}{}T\discretionary {-}{}{}E\discretionary {-}{}{}M\discretionary {-}{}{}\_\discretionary {-}{}{}\discretionary {-}{}{}T\discretionary {-}{}{}E\discretionary {-}{}{}X\discretionary {-}{}{}T}{7}{subsubsection.2.1.1.31}}
\newlabel{chem_calc_8inc_8php_a7009fd91d0bbec50413f053efc2a4a00}{{2.1.1.31}{7}{C\-H\-E\-M\-\_\-\-A\-P\-I\-\_\-\-S\-E\-A\-R\-C\-H\-A\-B\-K\-D\-\_\-\-T\-D\-I\-T\-E\-M\-\_\-\-T\-E\-X\-T}{subsubsection.2.1.1.31}{}}
\@writefile{toc}{\contentsline {subsubsection}{\numberline {2.1.1.32}C\discretionary {-}{}{}H\discretionary {-}{}{}E\discretionary {-}{}{}M\discretionary {-}{}{}\_\discretionary {-}{}{}\discretionary {-}{}{}A\discretionary {-}{}{}P\discretionary {-}{}{}I\discretionary {-}{}{}\_\discretionary {-}{}{}\discretionary {-}{}{}S\discretionary {-}{}{}E\discretionary {-}{}{}A\discretionary {-}{}{}R\discretionary {-}{}{}C\discretionary {-}{}{}H\discretionary {-}{}{}A\discretionary {-}{}{}B\discretionary {-}{}{}K\discretionary {-}{}{}D\discretionary {-}{}{}\_\discretionary {-}{}{}\discretionary {-}{}{}T\discretionary {-}{}{}R\discretionary {-}{}{}D\discretionary {-}{}{}E\discretionary {-}{}{}S\discretionary {-}{}{}C\discretionary {-}{}{}R\discretionary {-}{}{}C\discretionary {-}{}{}O\discretionary {-}{}{}L\discretionary {-}{}{}\_\discretionary {-}{}{}\discretionary {-}{}{}T\discretionary {-}{}{}E\discretionary {-}{}{}X\discretionary {-}{}{}T}{7}{subsubsection.2.1.1.32}}
\newlabel{chem_calc_8inc_8php_a504912df34a4597e8937089cf71b11d3}{{2.1.1.32}{7}{C\-H\-E\-M\-\_\-\-A\-P\-I\-\_\-\-S\-E\-A\-R\-C\-H\-A\-B\-K\-D\-\_\-\-T\-R\-D\-E\-S\-C\-R\-C\-O\-L\-\_\-\-T\-E\-X\-T}{subsubsection.2.1.1.32}{}}
\@writefile{toc}{\contentsline {subsubsection}{\numberline {2.1.1.33}C\discretionary {-}{}{}H\discretionary {-}{}{}E\discretionary {-}{}{}M\discretionary {-}{}{}\_\discretionary {-}{}{}\discretionary {-}{}{}A\discretionary {-}{}{}P\discretionary {-}{}{}I\discretionary {-}{}{}\_\discretionary {-}{}{}\discretionary {-}{}{}S\discretionary {-}{}{}E\discretionary {-}{}{}A\discretionary {-}{}{}R\discretionary {-}{}{}C\discretionary {-}{}{}H\discretionary {-}{}{}A\discretionary {-}{}{}B\discretionary {-}{}{}K\discretionary {-}{}{}D\discretionary {-}{}{}\_\discretionary {-}{}{}\discretionary {-}{}{}T\discretionary {-}{}{}R\discretionary {-}{}{}I\discretionary {-}{}{}T\discretionary {-}{}{}E\discretionary {-}{}{}M\discretionary {-}{}{}\_\discretionary {-}{}{}\discretionary {-}{}{}A\discretionary {-}{}{}T\discretionary {-}{}{}T\discretionary {-}{}{}R}{7}{subsubsection.2.1.1.33}}
\newlabel{chem_calc_8inc_8php_a438c64ea471f0dc78c8c0064fc0d6008}{{2.1.1.33}{7}{C\-H\-E\-M\-\_\-\-A\-P\-I\-\_\-\-S\-E\-A\-R\-C\-H\-A\-B\-K\-D\-\_\-\-T\-R\-I\-T\-E\-M\-\_\-\-A\-T\-T\-R}{subsubsection.2.1.1.33}{}}
\gdef \PWST@i{1}
\@writefile{toc}{\contentsline {subsubsection}{\numberline {2.1.1.34}C\discretionary {-}{}{}H\discretionary {-}{}{}E\discretionary {-}{}{}M\discretionary {-}{}{}\_\discretionary {-}{}{}\discretionary {-}{}{}A\discretionary {-}{}{}P\discretionary {-}{}{}I\discretionary {-}{}{}\_\discretionary {-}{}{}\discretionary {-}{}{}S\discretionary {-}{}{}E\discretionary {-}{}{}A\discretionary {-}{}{}R\discretionary {-}{}{}C\discretionary {-}{}{}H\discretionary {-}{}{}A\discretionary {-}{}{}B\discretionary {-}{}{}K\discretionary {-}{}{}D\discretionary {-}{}{}\_\discretionary {-}{}{}\discretionary {-}{}{}T\discretionary {-}{}{}R\discretionary {-}{}{}L\discretionary {-}{}{}A\discretionary {-}{}{}S\discretionary {-}{}{}T\discretionary {-}{}{}T\discretionary {-}{}{}E\discretionary {-}{}{}X\discretionary {-}{}{}T}{8}{subsubsection.2.1.1.34}}
\newlabel{chem_calc_8inc_8php_a956465d0e4f2a748c715dee21b350a8c}{{2.1.1.34}{8}{C\-H\-E\-M\-\_\-\-A\-P\-I\-\_\-\-S\-E\-A\-R\-C\-H\-A\-B\-K\-D\-\_\-\-T\-R\-L\-A\-S\-T\-T\-E\-X\-T}{subsubsection.2.1.1.34}{}}
\@writefile{toc}{\contentsline {section}{\numberline {2.2}\IeC {\CYRF }\IeC {\cyra }\IeC {\cyrishrt }\IeC {\cyrl } chem\discretionary {-}{}{}Calc\discretionary {-}{}{}\_\discretionary {-}{}{}\discretionary {-}{}{}A\discretionary {-}{}{}P\discretionary {-}{}{}I.\discretionary {-}{}{}php}{8}{section.2.2}}
\newlabel{chem_calc___a_p_i_8php}{{2.2}{8}{Файл chem\-Calc\-\_\-\-A\-P\-I.\-php}{section.2.2}{}}
\@writefile{toc}{\contentsline {subsection}{\numberline {2.2.1}\IeC {\CYRF }\IeC {\cyru }\IeC {\cyrn }\IeC {\cyrk }\IeC {\cyrc }\IeC {\cyri }\IeC {\cyri }}{8}{subsection.2.2.1}}
\@writefile{toc}{\contentsline {subsubsection}{\numberline {2.2.1.1}\discretionary {-}{}{}\_\discretionary {-}{}{}p\discretionary {-}{}{}Kdfmt}{8}{subsubsection.2.2.1.1}}
\newlabel{chem_calc___a_p_i_8php_a8c26d0e6c146775ce2df56360c2abb3a}{{2.2.1.1}{8}{\-\_\-p\-Kdfmt}{subsubsection.2.2.1.1}{}}
\@writefile{toc}{\contentsline {subsubsection}{\numberline {2.2.1.2}chem\discretionary {-}{}{}\_\discretionary {-}{}{}main}{9}{subsubsection.2.2.1.2}}
\newlabel{chem_calc___a_p_i_8php_a4b8ca3a9b392d1616c04e694c671d58a}{{2.2.1.2}{9}{chem\-\_\-main}{subsubsection.2.2.1.2}{}}
\@writefile{toc}{\contentsline {subsubsection}{\numberline {2.2.1.3}chem\discretionary {-}{}{}\_\discretionary {-}{}{}main\discretionary {-}{}{}\_\discretionary {-}{}{}ph}{9}{subsubsection.2.2.1.3}}
\newlabel{chem_calc___a_p_i_8php_a452b0feb3f405af016cd0bc2bad60c65}{{2.2.1.3}{9}{chem\-\_\-main\-\_\-ph}{subsubsection.2.2.1.3}{}}
\@writefile{toc}{\contentsline {subsubsection}{\numberline {2.2.1.4}chem\discretionary {-}{}{}\_\discretionary {-}{}{}main\discretionary {-}{}{}\_\discretionary {-}{}{}search\discretionary {-}{}{}A\discretionary {-}{}{}B\discretionary {-}{}{}Kd}{10}{subsubsection.2.2.1.4}}
\newlabel{chem_calc___a_p_i_8php_a3f85e5df44e7e4ca4fca0c5e0d05a153}{{2.2.1.4}{10}{chem\-\_\-main\-\_\-search\-A\-B\-Kd}{subsubsection.2.2.1.4}{}}
\gdef \PWST@ii{1}
\@writefile{toc}{\contentsline {subsubsection}{\numberline {2.2.1.5}chem\discretionary {-}{}{}\_\discretionary {-}{}{}p\discretionary {-}{}{}H}{11}{subsubsection.2.2.1.5}}
\newlabel{chem_calc___a_p_i_8php_aae3a1b7a95a42c9cf1dcfd98400f31a0}{{2.2.1.5}{11}{chem\-\_\-p\-H}{subsubsection.2.2.1.5}{}}
\gdef \PWST@iii{1}
\@writefile{toc}{\contentsline {subsubsection}{\numberline {2.2.1.6}chem\discretionary {-}{}{}\_\discretionary {-}{}{}search\discretionary {-}{}{}Acid\discretionary {-}{}{}Base\discretionary {-}{}{}Kd}{12}{subsubsection.2.2.1.6}}
\newlabel{chem_calc___a_p_i_8php_ae3d44f86583cb697bcf98be5ce53afbe}{{2.2.1.6}{12}{chem\-\_\-search\-Acid\-Base\-Kd}{subsubsection.2.2.1.6}{}}
\@writefile{toc}{\contentsline {subsection}{\numberline {2.2.2}\IeC {\CYRP }\IeC {\cyre }\IeC {\cyrr }\IeC {\cyre }\IeC {\cyrm }\IeC {\cyre }\IeC {\cyrn }\IeC {\cyrn }\IeC {\cyrery }\IeC {\cyre }}{13}{subsection.2.2.2}}
\@writefile{toc}{\contentsline {subsubsection}{\numberline {2.2.2.1}\$start}{13}{subsubsection.2.2.2.1}}
\newlabel{chem_calc___a_p_i_8php_a50a00e7de77365e00b117e73aa82fb9b}{{2.2.2.1}{13}{\$start}{subsubsection.2.2.2.1}{}}
\@writefile{toc}{\contentsline {subsubsection}{\numberline {2.2.2.2}\$time}{13}{subsubsection.2.2.2.2}}
\newlabel{chem_calc___a_p_i_8php_a78db1a0602e3b6ac1d9a1b5ec103c160}{{2.2.2.2}{13}{\$time}{subsubsection.2.2.2.2}{}}
\@writefile{toc}{\contentsline {subsubsection}{\numberline {2.2.2.3}C\discretionary {-}{}{}H\discretionary {-}{}{}E\discretionary {-}{}{}M\discretionary {-}{}{}M\discretionary {-}{}{}O\discretionary {-}{}{}D\discretionary {-}{}{}U\discretionary {-}{}{}L\discretionary {-}{}{}E\discretionary {-}{}{}A\discretionary {-}{}{}P\discretionary {-}{}{}I}{14}{subsubsection.2.2.2.3}}
\newlabel{chem_calc___a_p_i_8php_abe1ee86632018a795a6bc86080f23faf}{{2.2.2.3}{14}{C\-H\-E\-M\-M\-O\-D\-U\-L\-E\-A\-P\-I}{subsubsection.2.2.2.3}{}}
\@writefile{toc}{\contentsline {section}{\numberline {2.3}\IeC {\CYRF }\IeC {\cyra }\IeC {\cyrishrt }\IeC {\cyrl } chem\discretionary {-}{}{}Calc\discretionary {-}{}{}\_\discretionary {-}{}{}\discretionary {-}{}{}D\discretionary {-}{}{}B.\discretionary {-}{}{}php}{14}{section.2.3}}
\newlabel{chem_calc___d_b_8php}{{2.3}{14}{Файл chem\-Calc\-\_\-\-D\-B.\-php}{section.2.3}{}}
\@writefile{toc}{\contentsline {subsection}{\numberline {2.3.1}\IeC {\CYRF }\IeC {\cyru }\IeC {\cyrn }\IeC {\cyrk }\IeC {\cyrc }\IeC {\cyri }\IeC {\cyri }}{14}{subsection.2.3.1}}
\@writefile{toc}{\contentsline {subsubsection}{\numberline {2.3.1.1}array2\discretionary {-}{}{}\_\discretionary {-}{}{}search}{14}{subsubsection.2.3.1.1}}
\newlabel{chem_calc___d_b_8php_ace3fe85cb2d9bba776dadc28a80f05e1}{{2.3.1.1}{14}{array2\-\_\-search}{subsubsection.2.3.1.1}{}}
\gdef \PWST@iv{2}
\gdef \PWST@v{1}
\gdef \PWST@vi{1}
\@writefile{toc}{\contentsline {subsubsection}{\numberline {2.3.1.2}chem\discretionary {-}{}{}D\discretionary {-}{}{}B\discretionary {-}{}{}\_\discretionary {-}{}{}find\discretionary {-}{}{}Acid\discretionary {-}{}{}Base\discretionary {-}{}{}Kd\discretionary {-}{}{}Value}{15}{subsubsection.2.3.1.2}}
\newlabel{chem_calc___d_b_8php_ac993d9dc4c5174f58e3601bf6c261eb0}{{2.3.1.2}{15}{chem\-D\-B\-\_\-find\-Acid\-Base\-Kd\-Value}{subsubsection.2.3.1.2}{}}
\@writefile{toc}{\contentsline {subsubsection}{\numberline {2.3.1.3}chem\discretionary {-}{}{}D\discretionary {-}{}{}B\discretionary {-}{}{}\_\discretionary {-}{}{}read\discretionary {-}{}{}Acid\discretionary {-}{}{}Base\discretionary {-}{}{}Kd\discretionary {-}{}{}Table}{15}{subsubsection.2.3.1.3}}
\newlabel{chem_calc___d_b_8php_aa42328c4bf3646291427651acf50ef9d}{{2.3.1.3}{15}{chem\-D\-B\-\_\-read\-Acid\-Base\-Kd\-Table}{subsubsection.2.3.1.3}{}}
\gdef \PWST@vii{1}
\gdef \PWST@viii{1}
\@writefile{toc}{\contentsline {subsubsection}{\numberline {2.3.1.4}chem\discretionary {-}{}{}D\discretionary {-}{}{}B\discretionary {-}{}{}\_\discretionary {-}{}{}read\discretionary {-}{}{}Acid\discretionary {-}{}{}Kd\discretionary {-}{}{}Table}{16}{subsubsection.2.3.1.4}}
\newlabel{chem_calc___d_b_8php_ac19a072ac0d7cd7fa3b85c30573b88aa}{{2.3.1.4}{16}{chem\-D\-B\-\_\-read\-Acid\-Kd\-Table}{subsubsection.2.3.1.4}{}}
\@writefile{toc}{\contentsline {subsubsection}{\numberline {2.3.1.5}chem\discretionary {-}{}{}D\discretionary {-}{}{}B\discretionary {-}{}{}\_\discretionary {-}{}{}read\discretionary {-}{}{}Base\discretionary {-}{}{}Kd\discretionary {-}{}{}Table}{16}{subsubsection.2.3.1.5}}
\newlabel{chem_calc___d_b_8php_a0911ea5bc6f77e7404369b0359e7bbcd}{{2.3.1.5}{16}{chem\-D\-B\-\_\-read\-Base\-Kd\-Table}{subsubsection.2.3.1.5}{}}
\@writefile{toc}{\contentsline {subsubsection}{\numberline {2.3.1.6}chem\discretionary {-}{}{}D\discretionary {-}{}{}B\discretionary {-}{}{}\_\discretionary {-}{}{}search\discretionary {-}{}{}N\discretionary {-}{}{}Acid\discretionary {-}{}{}Base\discretionary {-}{}{}Kd\discretionary {-}{}{}Value}{16}{subsubsection.2.3.1.6}}
\newlabel{chem_calc___d_b_8php_a32a8d6f6a10f20797af02da0d7525fee}{{2.3.1.6}{16}{chem\-D\-B\-\_\-search\-N\-Acid\-Base\-Kd\-Value}{subsubsection.2.3.1.6}{}}
\gdef \PWST@ix{2}
\@writefile{toc}{\contentsline {subsubsection}{\numberline {2.3.1.7}read\discretionary {-}{}{}C\discretionary {-}{}{}S\discretionary {-}{}{}V}{17}{subsubsection.2.3.1.7}}
\newlabel{chem_calc___d_b_8php_a2ce46ab1a717ea7fa95be752235b78ff}{{2.3.1.7}{17}{read\-C\-S\-V}{subsubsection.2.3.1.7}{}}
\gdef \PWST@x{1}
\@writefile{toc}{\contentsline {section}{\numberline {2.4}\IeC {\CYRF }\IeC {\cyra }\IeC {\cyrishrt }\IeC {\cyrl } chem\discretionary {-}{}{}Calc\discretionary {-}{}{}\_\discretionary {-}{}{}p\discretionary {-}{}{}H.\discretionary {-}{}{}php}{18}{section.2.4}}
\newlabel{chem_calc__p_h_8php}{{2.4}{18}{Файл chem\-Calc\-\_\-p\-H.\-php}{section.2.4}{}}
\@writefile{toc}{\contentsline {subsection}{\numberline {2.4.1}\IeC {\CYRF }\IeC {\cyru }\IeC {\cyrn }\IeC {\cyrk }\IeC {\cyrc }\IeC {\cyri }\IeC {\cyri }}{18}{subsection.2.4.1}}
\@writefile{toc}{\contentsline {subsubsection}{\numberline {2.4.1.1}calc\discretionary {-}{}{}\_\discretionary {-}{}{}\discretionary {-}{}{}Quadratic}{18}{subsubsection.2.4.1.1}}
\newlabel{chem_calc__p_h_8php_a24fab36f6022bcbe3ace2815849523b8}{{2.4.1.1}{18}{calc\-\_\-\-Quadratic}{subsubsection.2.4.1.1}{}}
\gdef \PWST@xi{1}
\gdef \PWST@xii{1}
\@writefile{toc}{\contentsline {subsubsection}{\numberline {2.4.1.2}chem\discretionary {-}{}{}Calc\discretionary {-}{}{}\_\discretionary {-}{}{}concentration\discretionary {-}{}{}H\discretionary {-}{}{}O\discretionary {-}{}{}H\discretionary {-}{}{}\_\discretionary {-}{}{}common\discretionary {-}{}{}F}{19}{subsubsection.2.4.1.2}}
\newlabel{chem_calc__p_h_8php_ab5c095a19ddc413497699e333f0d67c0}{{2.4.1.2}{19}{chem\-Calc\-\_\-concentration\-H\-O\-H\-\_\-common\-F}{subsubsection.2.4.1.2}{}}
\gdef \PWST@xiii{1}
\@writefile{toc}{\contentsline {subsubsection}{\numberline {2.4.1.3}chem\discretionary {-}{}{}Calc\discretionary {-}{}{}\_\discretionary {-}{}{}concentration\discretionary {-}{}{}H\discretionary {-}{}{}O\discretionary {-}{}{}H\discretionary {-}{}{}\_\discretionary {-}{}{}simplified\discretionary {-}{}{}F}{20}{subsubsection.2.4.1.3}}
\newlabel{chem_calc__p_h_8php_a644987bff8933793f6c2d2f5c25a4693}{{2.4.1.3}{20}{chem\-Calc\-\_\-concentration\-H\-O\-H\-\_\-simplified\-F}{subsubsection.2.4.1.3}{}}
\gdef \PWST@xiv{1}
\@writefile{toc}{\contentsline {subsubsection}{\numberline {2.4.1.4}chem\discretionary {-}{}{}Calc\discretionary {-}{}{}\_\discretionary {-}{}{}\discretionary {-}{}{}Ostwald\discretionary {-}{}{}Dilution}{21}{subsubsection.2.4.1.4}}
\newlabel{chem_calc__p_h_8php_a0119a4368040ac5d10ece860ee406ef1}{{2.4.1.4}{21}{chem\-Calc\-\_\-\-Ostwald\-Dilution}{subsubsection.2.4.1.4}{}}
\@writefile{toc}{\contentsline {section}{\numberline {2.5}\IeC {\CYRF }\IeC {\cyra }\IeC {\cyrishrt }\IeC {\cyrl } chem\discretionary {-}{}{}Calc\discretionary {-}{}{}\_\discretionary {-}{}{}\discretionary {-}{}{}R\discretionary {-}{}{}U.\discretionary {-}{}{}php}{22}{section.2.5}}
\newlabel{chem_calc___r_u_8php}{{2.5}{22}{Файл chem\-Calc\-\_\-\-R\-U.\-php}{section.2.5}{}}
